[gd_scene load_steps=11 format=2]

[ext_resource path="res://Player.tscn" type="PackedScene" id=1]
[ext_resource path="res://HellCastleTileSet.tres" type="TileSet" id=2]
[ext_resource path="res://HellCastleNoclipSet2.tres" type="TileSet" id=3]
[ext_resource path="res://HellCastleNoclipSet.tres" type="TileSet" id=4]
[ext_resource path="res://HellCastleStairs.tres" type="TileSet" id=5]
[ext_resource path="res://WalkwaySet.tres" type="TileSet" id=6]
[ext_resource path="res://Enemy.tscn" type="PackedScene" id=7]
[ext_resource path="res://Lever.tscn" type="PackedScene" id=8]
[ext_resource path="res://NextLevel.tscn" type="PackedScene" id=9]
[ext_resource path="res://Gate.tscn" type="PackedScene" id=11]

[node name="Start Level" type="Node2D"]

[node name="Player" parent="." instance=ExtResource( 1 )]
position = Vector2( -8, 48 )

[node name="HellCastleSet" type="TileMap" parent="."]
tile_set = ExtResource( 2 )
cell_size = Vector2( 32, 32 )
format = 1
tile_data = PoolIntArray( -1900444, 1, 0, -1900443, 1, 0, -1900442, 1, 0, -1900441, 1, 0, -1900440, 1, 0, -1834908, 4, 0, -1834907, 4, 0, -1834906, 4, 0, -1834905, 4, 0, -1834904, 4, 0, -1769372, 1073741828, 0, -1769371, 1073741828, 0, -1769370, 1073741828, 0, -1769369, 1073741828, 0, -1769368, 1073741828, 0, -1703836, 1073741825, 0, -1703835, 1073741825, 0, -1703834, 1073741825, 0, -1703833, 1073741825, 0, -1703832, 1073741825, 0, -1638310, 0, 0, -1638309, 2, 0, -1638287, 2, 0, -1638286, 2, 0, -1572774, 3, 0, -1572773, 5, 0, -1572751, 3, 0, -1572750, 5, 0, -1507238, 1073741830, 0, -1507237, 1073741832, 0, -1507215, 6, 0, -1507214, 8, 0, -1441702, 1073741830, 0, -1441701, 1073741832, 0, -1441679, 6, 0, -1441678, 8, 0, -1376166, 1073741830, 0, -1376165, 1073741832, 0, -1376143, 1073741830, 0, -1376142, 1073741832, 0, -1376115, 1, 0, -1376114, 1, 0, -1376113, 2, 0, -1310630, 1073741830, 0, -1310629, 1073741832, 0, -1310607, 1073741827, 0, -1310606, 1073741829, 0, -1310579, 3, 0, -1310578, 4, 0, -1310577, 5, 0, -1245094, 1073741830, 0, -1245093, 1073741832, 0, -1245071, 1073741824, 0, -1245070, 1073741826, 0, -1245043, 6, 0, -1245042, 7, 0, -1245041, 8, 0, -1179558, 1073741830, 0, -1179557, 1073741832, 0, -1179507, 6, 0, -1179506, 7, 0, -1179505, 8, 0, -1114022, 6, 0, -1114021, 8, 0, -1114016, 3, 0, -1114015, 4, 0, -1114014, 4, 0, -1114013, 4, 0, -1114012, 4, 0, -1114011, 4, 0, -1114010, 4, 0, -1114009, 4, 0, -1114008, 4, 0, -1114007, 4, 0, -1114006, 4, 0, -1114005, 4, 0, -1114004, 4, 0, -1114003, 4, 0, -1114002, 4, 0, -1114001, 4, 0, -1114000, 4, 0, -1113971, 6, 0, -1113970, 7, 0, -1113969, 8, 0, -1048486, 6, 0, -1048485, 8, 0, -1048480, 1073741827, 0, -1048479, 1073741828, 0, -1048478, 1073741828, 0, -1048477, 1073741828, 0, -1048476, 1073741828, 0, -1048475, 1073741828, 0, -1048474, 1073741828, 0, -1048473, 1073741828, 0, -1048472, 1073741828, 0, -1048471, 1073741828, 0, -1048470, 1073741828, 0, -1048469, 1073741828, 0, -1048468, 1073741828, 0, -1048467, 1073741828, 0, -1048466, 1073741831, 0, -1048465, 7, 0, -1048464, 7, 0, -1048463, 7, 0, -1048435, 6, 0, -1048434, 7, 0, -1048433, 8, 0, -982950, 6, 0, -982949, 8, 0, -982944, 1073741824, 0, -982943, 1073741825, 0, -982942, 1073741825, 0, -982941, 1073741825, 0, -982940, 1073741825, 0, -982939, 1073741825, 0, -982938, 1073741825, 0, -982937, 1073741825, 0, -982936, 1073741825, 0, -982935, 1073741825, 0, -982934, 1073741825, 0, -982933, 1073741825, 0, -982932, 1073741825, 0, -982931, 1073741825, 0, -982930, 6, 0, -982929, 7, 0, -982928, 7, 0, -982927, 7, 0, -982926, 7, 0, -982925, 7, 0, -982923, 1, 0, -982922, 1, 0, -982899, 6, 0, -982898, 7, 0, -982897, 8, 0, -917414, 6, 0, -917413, 8, 0, -917394, 6, 0, -917393, 7, 0, -917392, 7, 0, -917391, 7, 0, -917390, 7, 0, -917389, 7, 0, -917388, 7, 0, -917387, 7, 0, -917363, 6, 0, -917362, 7, 0, -917361, 8, 0, -851887, 0, 0, -851886, 1, 0, -851878, 1073741827, 0, -851877, 1073741829, 0, -851872, 0, 0, -851871, 1, 0, -851870, 1, 0, -851869, 1, 0, -851868, 1, 0, -851867, 1, 0, -851866, 1, 0, -851865, 1, 0, -851864, 1, 0, -851863, 2, 0, -851858, 6, 0, -851857, 7, 0, -851856, 7, 0, -851855, 7, 0, -851854, 7, 0, -851853, 7, 0, -851852, 7, 0, -851851, 7, 0, -851850, 7, 0, -851849, 7, 0, -851827, 6, 0, -851826, 7, 0, -851825, 8, 0, -786351, 3, 0, -786350, 4, 0, -786342, 1073741824, 0, -786341, 1073741826, 0, -786336, 3, 0, -786335, 4, 0, -786334, 4, 0, -786333, 4, 0, -786332, 4, 0, -786331, 4, 0, -786330, 4, 0, -786329, 4, 0, -786328, 4, 0, -786327, 5, 0, -786322, 6, 0, -786321, 7, 0, -786320, 7, 0, -786319, 7, 0, -786318, 7, 0, -786317, 7, 0, -786316, 7, 0, -786315, 7, 0, -786314, 7, 0, -786313, 7, 0, -786312, 7, 0, -786311, 7, 0, -786307, 1, 0, -786306, 1, 0, -786305, 1, 0, -786304, 1, 0, -786303, 1, 0, -786302, 1, 0, -786301, 1, 0, -786300, 1, 0, -786299, 2, 0, -786298, 1, 0, -786297, 1, 0, -786296, 1, 0, -786295, 1, 0, -786294, 1, 0, -786293, 1, 0, -786292, 2, 0, -786291, 6, 0, -786290, 7, 0, -786289, 8, 0, -720815, 6, 0, -720814, 7, 0, -720813, 7, 0, -720800, 1073741827, 0, -720799, 1073741828, 0, -720798, 1073741828, 0, -720797, 1073741828, 0, -720796, 1073741828, 0, -720795, 1073741828, 0, -720794, 1073741828, 0, -720793, 1073741828, 0, -720792, 1073741828, 0, -720791, 1073741829, 0, -720786, 6, 0, -720785, 7, 0, -720784, 7, 0, -720783, 7, 0, -720782, 7, 0, -720781, 7, 0, -720780, 7, 0, -720779, 7, 0, -720778, 7, 0, -720777, 7, 0, -720776, 7, 0, -720775, 7, 0, -720774, 7, 0, -720773, 7, 0, -720771, 4, 0, -720770, 4, 0, -720769, 4, 0, -720768, 4, 0, -720767, 4, 0, -720766, 4, 0, -720765, 4, 0, -720764, 4, 0, -720763, 4, 0, -720762, 4, 0, -720761, 4, 0, -720760, 4, 0, -720759, 4, 0, -720758, 4, 0, -720757, 4, 0, -720756, 4, 0, -720755, 6, 0, -720754, 7, 0, -720753, 8, 0, -655279, 6, 0, -655278, 7, 0, -655277, 7, 0, -655276, 7, 0, -655275, 7, 0, -655264, 1073741825, 0, -655263, 1073741825, 0, -655262, 1073741825, 0, -655261, 1073741825, 0, -655260, 1073741825, 0, -655259, 1073741825, 0, -655258, 1073741825, 0, -655257, 1073741825, 0, -655256, 1073741825, 0, -655255, 1073741826, 0, -655251, 1, 0, -655250, 6, 0, -655249, 7, 0, -655248, 7, 0, -655247, 7, 0, -655246, 7, 0, -655245, 7, 0, -655244, 7, 0, -655243, 7, 0, -655242, 7, 0, -655241, 7, 0, -655240, 7, 0, -655239, 7, 0, -655238, 7, 0, -655237, 7, 0, -655236, 7, 0, -655235, 7, 0, -655234, 7, 0, -655233, 7, 0, -655232, 7, 0, -655231, 7, 0, -655230, 7, 0, -655229, 7, 0, -655228, 7, 0, -655227, 7, 0, -655226, 7, 0, -655225, 7, 0, -655224, 7, 0, -655223, 7, 0, -655222, 7, 0, -655221, 7, 0, -655220, 7, 0, -655219, 7, 0, -655218, 7, 0, -655217, 8, 0, -589743, 6, 0, -589742, 7, 0, -589741, 7, 0, -589740, 7, 0, -589739, 7, 0, -589738, 7, 0, -589737, 7, 0, -589715, 4, 0, -589714, 7, 0, -589713, 7, 0, -589712, 7, 0, -589711, 7, 0, -589710, 7, 0, -589709, 7, 0, -589708, 7, 0, -589707, 7, 0, -589706, 7, 0, -589705, 7, 0, -589704, 7, 0, -589703, 7, 0, -589702, 7, 0, -589701, 7, 0, -589700, 7, 0, -589699, 7, 0, -589698, 7, 0, -589697, 7, 0, -589696, 7, 0, -589695, 7, 0, -589694, 7, 0, -589693, 7, 0, -589692, 7, 0, -589691, 7, 0, -589690, 7, 0, -589689, 7, 0, -589688, 7, 0, -589687, 7, 0, -589686, 7, 0, -589685, 7, 0, -589684, 7, 0, -589683, 7, 0, -589682, 7, 0, -589681, 8, 0, -524193, 1, 0, -524192, 1, 0, -524191, 1, 0, -524190, 1, 0, -524189, 1, 0, -524188, 1, 0, -524187, 1, 0, -524186, 1, 0, -524185, 1, 0, -524184, 1, 0, -524180, 7, 0, -524179, 7, 0, -524178, 7, 0, -524177, 7, 0, -524176, 7, 0, -524175, 7, 0, -524174, 7, 0, -524173, 7, 0, -524172, 7, 0, -524171, 7, 0, -524170, 7, 0, -524169, 7, 0, -524168, 7, 0, -524167, 7, 0, -524166, 7, 0, -524165, 7, 0, -524164, 7, 0, -524163, 7, 0, -524162, 7, 0, -524161, 7, 0, -524160, 7, 0, -524159, 7, 0, -524158, 7, 0, -524157, 7, 0, -524156, 7, 0, -524155, 7, 0, -524154, 7, 0, -524153, 7, 0, -524152, 7, 0, -524151, 7, 0, -524150, 7, 0, -524149, 7, 0, -524148, 7, 0, -524147, 7, 0, -524146, 7, 0, -524145, 8, 0, -458657, 4, 0, -458656, 4, 0, -458655, 4, 0, -458654, 4, 0, -458653, 4, 0, -458652, 4, 0, -458651, 4, 0, -458650, 4, 0, -458649, 4, 0, -458648, 4, 0, -458646, 7, 0, -458645, 7, 0, -458644, 7, 0, -458643, 7, 0, -458642, 7, 0, -458641, 7, 0, -458640, 7, 0, -458639, 7, 0, -458638, 7, 0, -458637, 7, 0, -458636, 7, 0, -458635, 7, 0, -458634, 7, 0, -458633, 7, 0, -458632, 7, 0, -458631, 7, 0, -458630, 7, 0, -458629, 7, 0, -458628, 7, 0, -458627, 7, 0, -458626, 7, 0, -458625, 7, 0, -458624, 7, 0, -458623, 7, 0, -458622, 7, 0, -458621, 7, 0, -458620, 7, 0, -458619, 7, 0, -458618, 7, 0, -458617, 7, 0, -458616, 7, 0, -458615, 7, 0, -458614, 7, 0, -458613, 7, 0, -458612, 7, 0, -458611, 7, 0, -458610, 7, 0, -458609, 8, 0, -327758, 4, 0, -327757, 4, 0, -327756, 4, 0, -327755, 4, 0, -327754, 4, 0, -327753, 4, 0, -327752, 4, 0, -327751, 4, 0, -327750, 4, 0, -327749, 5, 0, -393122, 7, 0, -393121, 7, 0, -393120, 7, 0, -393119, 7, 0, -393118, 7, 0, -393117, 7, 0, -393116, 7, 0, -393115, 7, 0, -393114, 7, 0, -393113, 7, 0, -393112, 7, 0, -393111, 7, 0, -393110, 7, 0, -393109, 7, 0, -393108, 7, 0, -393107, 7, 0, -393106, 7, 0, -393105, 7, 0, -393104, 10, 0, -393103, 10, 0, -393102, 10, 0, -393101, 10, 0, -393100, 10, 0, -393099, 10, 0, -393098, 10, 0, -393097, 10, 0, -393096, 10, 0, -393095, 10, 0, -393094, 10, 0, -393093, 10, 0, -393092, 10, 0, -393091, 10, 0, -393090, 10, 0, -393089, 10, 0, -393088, 10, 0, -393087, 10, 0, -393086, 10, 0, -393085, 10, 0, -393084, 10, 0, -393083, 10, 0, -393082, 10, 0, -393081, 10, 0, -393080, 10, 0, -393079, 10, 0, -393078, 10, 0, -393077, 10, 0, -393076, 10, 0, -393075, 10, 0, -393074, 10, 0, -393073, 11, 0, -262222, 7, 0, -262221, 7, 0, -262220, 7, 0, -262219, 7, 0, -262218, 7, 0, -262217, 7, 0, -262216, 7, 0, -262215, 7, 0, -262214, 7, 0, -262213, 8, 0, -327597, 1, 0, -327596, 1, 0, -327595, 1, 0, -327594, 1, 0, -327593, 1, 0, -327592, 1, 0, -327588, 7, 0, -327587, 7, 0, -327586, 7, 0, -327585, 7, 0, -327584, 7, 0, -327583, 7, 0, -327582, 7, 0, -327581, 7, 0, -327580, 7, 0, -327579, 7, 0, -327578, 7, 0, -327577, 7, 0, -327576, 7, 0, -327575, 7, 0, -327574, 7, 0, -327573, 7, 0, -327572, 7, 0, -327571, 7, 0, -327570, 7, 0, -327569, 7, 0, -327568, 8, 0, -196686, 7, 0, -196685, 7, 0, -196684, 7, 0, -196683, 7, 0, -196682, 7, 0, -196681, 7, 0, -196680, 7, 0, -196679, 7, 0, -196678, 7, 0, -196677, 8, 0, -262061, 4, 0, -262060, 4, 0, -262059, 4, 0, -262058, 4, 0, -262057, 4, 0, -262056, 4, 0, -262054, 7, 0, -262053, 7, 0, -262052, 7, 0, -262051, 7, 0, -262050, 7, 0, -262049, 7, 0, -262048, 7, 0, -262047, 7, 0, -262046, 7, 0, -262045, 7, 0, -262044, 7, 0, -262043, 7, 0, -262042, 7, 0, -262041, 7, 0, -262040, 7, 0, -262039, 7, 0, -262038, 7, 0, -262037, 7, 0, -262036, 7, 0, -262035, 7, 0, -262034, 7, 0, -262033, 7, 0, -262032, 8, 0, -131150, 7, 0, -131149, 7, 0, -131148, 7, 0, -131147, 7, 0, -131146, 7, 0, -131145, 7, 0, -131144, 7, 0, -131143, 7, 0, -131142, 7, 0, -131141, 8, 0, -131110, 0, 0, -131109, 1, 0, -131108, 1, 0, -131107, 1, 0, -131106, 1, 0, -131105, 2, 0, -196526, 7, 0, -196525, 7, 0, -196524, 7, 0, -196523, 7, 0, -196522, 7, 0, -196521, 7, 0, -196520, 7, 0, -196519, 7, 0, -196518, 7, 0, -196517, 7, 0, -196516, 7, 0, -196515, 7, 0, -196514, 7, 0, -196513, 7, 0, -196512, 7, 0, -196511, 7, 0, -196510, 7, 0, -196509, 7, 0, -196508, 7, 0, -196507, 7, 0, -196506, 7, 0, -196505, 7, 0, -196504, 7, 0, -196503, 7, 0, -196502, 7, 0, -196501, 7, 0, -196500, 7, 0, -196499, 7, 0, -196498, 7, 0, -196497, 7, 0, -196496, 8, 0, -65614, 7, 0, -65613, 7, 0, -65612, 7, 0, -65611, 7, 0, -65610, 7, 0, -65609, 7, 0, -65608, 7, 0, -65607, 7, 0, -65606, 7, 0, -65605, 8, 0, -65574, 4, 0, -65573, 4, 0, -65572, 4, 0, -65571, 4, 0, -65570, 4, 0, -65569, 5, 0, -130991, 7, 0, -130990, 7, 0, -130989, 7, 0, -130988, 7, 0, -130987, 7, 0, -130986, 7, 0, -130985, 7, 0, -130984, 7, 0, -130983, 7, 0, -130982, 7, 0, -130981, 7, 0, -130980, 7, 0, -130979, 7, 0, -130978, 7, 0, -130977, 7, 0, -130976, 7, 0, -130975, 7, 0, -130974, 7, 0, -130973, 7, 0, -130972, 7, 0, -130971, 7, 0, -130970, 7, 0, -130969, 7, 0, -130968, 7, 0, -130967, 7, 0, -130966, 7, 0, -130965, 7, 0, -130964, 7, 0, -130963, 7, 0, -130962, 7, 0, -130961, 7, 0, -130960, 8, 0, -78, 7, 0, -77, 7, 0, -76, 7, 0, -75, 7, 0, -74, 7, 0, -73, 7, 0, -72, 7, 0, -71, 7, 0, -70, 7, 0, -69, 8, 0, -61, 7, 0, -60, 7, 0, -59, 7, 0, -58, 7, 0, -57, 7, 0, -56, 7, 0, -55, 7, 0, -38, 7, 0, -37, 7, 0, -36, 7, 0, -35, 7, 0, -34, 7, 0, -33, 8, 0, -65512, 0, 0, -65511, 1, 0, -65510, 1, 0, -65509, 1, 0, -65508, 1, 0, -65507, 1, 0, -65506, 1, 0, -65505, 1, 0, -65504, 1, 0, -65503, 1, 0, -65502, 1, 0, -65501, 1, 0, -65500, 1, 0, -65499, 1, 0, -65498, 1, 0, -65497, 1, 0, -65496, 1, 0, -65495, 1, 0, -65494, 1, 0, -65493, 1, 0, -65492, 1, 0, -65491, 1, 0, -65490, 1, 0, -65489, 1, 0, -65488, 1, 0, -65487, 1, 0, -65486, 1, 0, -65485, 1, 0, -65484, 1, 0, -65483, 1, 0, -65482, 1, 0, -65481, 1, 0, -65480, 1, 0, -65479, 1, 0, -65478, 1, 0, -65477, 1, 0, -65476, 1, 0, -65475, 1, 0, -65474, 1, 0, -65473, 1, 0, -65472, 1, 0, -65471, 1, 0, -65470, 1, 0, -65469, 1, 0, -65468, 1, 0, -65467, 1, 0, -65466, 1, 0, -65465, 1, 0, -65464, 1, 0, -65463, 1, 0, -65462, 1, 0, -65461, 1, 0, -65460, 1, 0, -65456, 7, 0, -65455, 7, 0, -65454, 7, 0, -65453, 7, 0, -65452, 7, 0, -65451, 7, 0, -65450, 7, 0, -65449, 7, 0, -65448, 7, 0, -65447, 7, 0, -65446, 7, 0, -65445, 7, 0, -65444, 7, 0, -65443, 7, 0, -65442, 7, 0, -65441, 7, 0, -65440, 7, 0, -65439, 7, 0, -65438, 7, 0, -65437, 7, 0, -65436, 7, 0, -65435, 7, 0, -65434, 7, 0, -65433, 7, 0, -65432, 7, 0, -65431, 7, 0, -65430, 7, 0, -65429, 7, 0, -65428, 7, 0, -65427, 7, 0, -65426, 7, 0, -65425, 7, 0, -65424, 8, 0, 65458, 7, 0, 65459, 7, 0, 65460, 7, 0, 65461, 7, 0, 65462, 7, 0, 65463, 7, 0, 65464, 7, 0, 65465, 7, 0, 65466, 7, 0, 65467, 8, 0, 65475, 7, 0, 65481, 7, 0, 65497, 7, 0, 65498, 7, 0, 65499, 7, 0, 65500, 7, 0, 65501, 7, 0, 65502, 7, 0, 65503, 8, 0, 24, 3, 0, 25, 4, 0, 26, 4, 0, 27, 4, 0, 28, 4, 0, 29, 4, 0, 30, 4, 0, 31, 4, 0, 32, 4, 0, 33, 4, 0, 34, 4, 0, 35, 4, 0, 36, 4, 0, 37, 4, 0, 38, 4, 0, 39, 4, 0, 40, 4, 0, 41, 4, 0, 42, 4, 0, 43, 4, 0, 44, 4, 0, 45, 4, 0, 46, 4, 0, 47, 4, 0, 48, 4, 0, 49, 4, 0, 50, 4, 0, 51, 4, 0, 52, 4, 0, 53, 4, 0, 54, 4, 0, 55, 4, 0, 56, 4, 0, 57, 4, 0, 58, 4, 0, 59, 4, 0, 60, 4, 0, 61, 4, 0, 62, 4, 0, 63, 4, 0, 64, 4, 0, 65, 4, 0, 66, 4, 0, 67, 4, 0, 68, 4, 0, 69, 4, 0, 70, 4, 0, 71, 4, 0, 72, 4, 0, 73, 4, 0, 74, 4, 0, 75, 4, 0, 76, 4, 0, 78, 7, 0, 79, 7, 0, 80, 7, 0, 81, 7, 0, 82, 7, 0, 83, 7, 0, 84, 7, 0, 85, 7, 0, 86, 7, 0, 87, 7, 0, 88, 7, 0, 89, 7, 0, 90, 7, 0, 91, 7, 0, 92, 7, 0, 93, 7, 0, 94, 7, 0, 95, 7, 0, 96, 7, 0, 97, 7, 0, 98, 7, 0, 99, 7, 0, 100, 7, 0, 101, 7, 0, 102, 7, 0, 103, 7, 0, 104, 7, 0, 105, 7, 0, 106, 7, 0, 107, 7, 0, 108, 7, 0, 109, 7, 0, 110, 7, 0, 111, 7, 0, 112, 8, 0, 130994, 7, 0, 130995, 7, 0, 130996, 7, 0, 130997, 7, 0, 130998, 7, 0, 130999, 7, 0, 131000, 7, 0, 131001, 7, 0, 131002, 7, 0, 131003, 8, 0, 131011, 7, 0, 131017, 7, 0, 131032, 7, 0, 131033, 7, 0, 131034, 7, 0, 131035, 7, 0, 131036, 7, 0, 131037, 7, 0, 131038, 7, 0, 131039, 8, 0, 65554, 0, 0, 65555, 1, 0, 65556, 1, 0, 65557, 1, 0, 65558, 1, 0, 65559, 2, 0, 65560, 6, 0, 65561, 7, 0, 65562, 7, 0, 65563, 7, 0, 65564, 7, 0, 65565, 7, 0, 65566, 7, 0, 65567, 7, 0, 65568, 7, 0, 65569, 7, 0, 65570, 7, 0, 65571, 7, 0, 65572, 7, 0, 65573, 7, 0, 65574, 7, 0, 65575, 7, 0, 65576, 7, 0, 65577, 7, 0, 65578, 7, 0, 65579, 7, 0, 65580, 7, 0, 65581, 7, 0, 65582, 7, 0, 65583, 7, 0, 65584, 7, 0, 65585, 7, 0, 65586, 7, 0, 65587, 7, 0, 65588, 7, 0, 65589, 7, 0, 65590, 7, 0, 65591, 7, 0, 65592, 7, 0, 65593, 7, 0, 65594, 7, 0, 65595, 7, 0, 65596, 7, 0, 65597, 7, 0, 65598, 7, 0, 65599, 7, 0, 65600, 7, 0, 65601, 7, 0, 65602, 7, 0, 65603, 7, 0, 65604, 7, 0, 65605, 7, 0, 65606, 7, 0, 65607, 7, 0, 65608, 7, 0, 65609, 7, 0, 65610, 7, 0, 65611, 7, 0, 65612, 7, 0, 65613, 7, 0, 65614, 7, 0, 65615, 7, 0, 65616, 7, 0, 65617, 7, 0, 65618, 7, 0, 65619, 7, 0, 65620, 7, 0, 65621, 7, 0, 65622, 7, 0, 65623, 7, 0, 65624, 7, 0, 65625, 7, 0, 65626, 7, 0, 65627, 7, 0, 65628, 7, 0, 65629, 7, 0, 65630, 7, 0, 65631, 7, 0, 65632, 7, 0, 65633, 7, 0, 65634, 7, 0, 65635, 7, 0, 65636, 7, 0, 65637, 7, 0, 65638, 7, 0, 65639, 7, 0, 65640, 7, 0, 65641, 7, 0, 65642, 7, 0, 65643, 7, 0, 65644, 7, 0, 65645, 7, 0, 65646, 7, 0, 65647, 7, 0, 65648, 8, 0, 196530, 7, 0, 196531, 7, 0, 196532, 7, 0, 196533, 7, 0, 196534, 7, 0, 196535, 7, 0, 196536, 7, 0, 196537, 7, 0, 196538, 7, 0, 196539, 8, 0, 196547, 7, 0, 196566, 7, 0, 196567, 7, 0, 196568, 7, 0, 196569, 7, 0, 196570, 7, 0, 196571, 7, 0, 196572, 7, 0, 196573, 7, 0, 196574, 7, 0, 196575, 8, 0, 131090, 3, 0, 131091, 4, 0, 131092, 4, 0, 131093, 4, 0, 131094, 4, 0, 131095, 4, 0, 131096, 6, 0, 131097, 7, 0, 131098, 7, 0, 131099, 7, 0, 131100, 7, 0, 131101, 7, 0, 131102, 7, 0, 131103, 7, 0, 131104, 7, 0, 131105, 7, 0, 131106, 7, 0, 131107, 7, 0, 131108, 7, 0, 131109, 7, 0, 131110, 7, 0, 131111, 7, 0, 131112, 7, 0, 131113, 7, 0, 131114, 7, 0, 131115, 7, 0, 131116, 7, 0, 131117, 7, 0, 131118, 7, 0, 131119, 7, 0, 131120, 7, 0, 131121, 7, 0, 131122, 7, 0, 131123, 7, 0, 131124, 7, 0, 131125, 7, 0, 131126, 7, 0, 131127, 7, 0, 131128, 7, 0, 131129, 7, 0, 131130, 7, 0, 131131, 7, 0, 131132, 7, 0, 131133, 7, 0, 131134, 7, 0, 131135, 7, 0, 131136, 7, 0, 131137, 7, 0, 131138, 7, 0, 131139, 7, 0, 131140, 7, 0, 131141, 7, 0, 131142, 7, 0, 131143, 7, 0, 131144, 7, 0, 131145, 7, 0, 131146, 7, 0, 131147, 7, 0, 131148, 7, 0, 131149, 7, 0, 131150, 7, 0, 131151, 7, 0, 131152, 7, 0, 131153, 7, 0, 131154, 7, 0, 131155, 7, 0, 131156, 7, 0, 131157, 7, 0, 131158, 7, 0, 131159, 7, 0, 131160, 7, 0, 131161, 7, 0, 131162, 7, 0, 131163, 7, 0, 131164, 7, 0, 131165, 7, 0, 131166, 7, 0, 131167, 7, 0, 131168, 7, 0, 131169, 7, 0, 131170, 7, 0, 131171, 7, 0, 131172, 7, 0, 131173, 7, 0, 131174, 7, 0, 131175, 7, 0, 131176, 7, 0, 131177, 7, 0, 131178, 7, 0, 131179, 10, 0, 131180, 10, 0, 131181, 10, 0, 131182, 10, 0, 131183, 10, 0, 131184, 11, 0, 262066, 7, 0, 262067, 7, 0, 262068, 7, 0, 262069, 7, 0, 262070, 7, 0, 262071, 7, 0, 262072, 7, 0, 262073, 7, 0, 262074, 7, 0, 262075, 8, 0, 262076, 1, 0, 262077, 1, 0, 262078, 1, 0, 262079, 1, 0, 262080, 1, 0, 262081, 1, 0, 262083, 7, 0, 262086, 0, 0, 262087, 1, 0, 262088, 1, 0, 262089, 1, 0, 262090, 1, 0, 262091, 1, 0, 262092, 1, 0, 262093, 1, 0, 262094, 1, 0, 262095, 1, 0, 262096, 1, 0, 262097, 1, 0, 262098, 1, 0, 262099, 1, 0, 262102, 7, 0, 262103, 7, 0, 262104, 7, 0, 262105, 7, 0, 262106, 7, 0, 262107, 7, 0, 262108, 7, 0, 262109, 7, 0, 262110, 7, 0, 262111, 8, 0, 262117, 0, 0, 262118, 1, 0, 262119, 1, 0, 262120, 1, 0, 262121, 1, 0, 262122, 1, 0, 262123, 1, 0, 262124, 1, 0, 262125, 1, 0, 262126, 1, 0, 262127, 1, 0, 262128, 1, 0, 262129, 1, 0, 262130, 1, 0, 262131, 1, 0, 262132, 1, 0, 262133, 1, 0, 262134, 1, 0, 262135, 1, 0, 262136, 1, 0, 262137, 1, 0, 262138, 1, 0, 262139, 1, 0, 262140, 1, 0, 262141, 1, 0, 262142, 1, 0, 262143, 1, 0, 196608, 0, 0, 196609, 1, 0, 196610, 1, 0, 196611, 1, 0, 196612, 1, 0, 196613, 1, 0, 196614, 1, 0, 196615, 1, 0, 196616, 1, 0, 196617, 1, 0, 196618, 1, 0, 196619, 1, 0, 196620, 1, 0, 196621, 1, 0, 196622, 1, 0, 196623, 1, 0, 196624, 1, 0, 196625, 2, 0, 196626, 6, 0, 196627, 7, 0, 196628, 7, 0, 196629, 7, 0, 196630, 7, 0, 196631, 7, 0, 196632, 7, 0, 196633, 7, 0, 196634, 7, 0, 196635, 7, 0, 196636, 7, 0, 196637, 7, 0, 196638, 7, 0, 196639, 7, 0, 196640, 7, 0, 196641, 7, 0, 196642, 7, 0, 196643, 7, 0, 196644, 7, 0, 196645, 7, 0, 196646, 7, 0, 196647, 7, 0, 196648, 7, 0, 196649, 7, 0, 196650, 7, 0, 196651, 7, 0, 196652, 7, 0, 196653, 7, 0, 196654, 7, 0, 196655, 7, 0, 196656, 7, 0, 196657, 7, 0, 196658, 7, 0, 196659, 7, 0, 196660, 7, 0, 196661, 7, 0, 196662, 7, 0, 196663, 7, 0, 196664, 7, 0, 196665, 7, 0, 196666, 7, 0, 196667, 7, 0, 196668, 7, 0, 196669, 7, 0, 196670, 7, 0, 196671, 7, 0, 196672, 7, 0, 196673, 7, 0, 196674, 7, 0, 196675, 7, 0, 196676, 7, 0, 196677, 7, 0, 196678, 7, 0, 196679, 7, 0, 196680, 7, 0, 196681, 7, 0, 196682, 7, 0, 196683, 7, 0, 196684, 7, 0, 196685, 7, 0, 196686, 7, 0, 196687, 7, 0, 196688, 7, 0, 196689, 7, 0, 196690, 7, 0, 196691, 7, 0, 196692, 7, 0, 196693, 7, 0, 196694, 7, 0, 196695, 7, 0, 196696, 7, 0, 196697, 7, 0, 196698, 7, 0, 196699, 7, 0, 196700, 7, 0, 196701, 7, 0, 196702, 7, 0, 196703, 7, 0, 196704, 7, 0, 196705, 7, 0, 196706, 7, 0, 196707, 7, 0, 196708, 7, 0, 196709, 7, 0, 196710, 7, 0, 196711, 7, 0, 196712, 7, 0, 196713, 7, 0, 196714, 7, 0, 327602, 7, 0, 327603, 7, 0, 327604, 7, 0, 327605, 7, 0, 327606, 7, 0, 327607, 7, 0, 327608, 7, 0, 327609, 7, 0, 327610, 7, 0, 327611, 8, 0, 327612, 4, 0, 327613, 4, 0, 327614, 4, 0, 327615, 4, 0, 327616, 4, 0, 327617, 4, 0, 327618, 4, 0, 327619, 5, 0, 327622, 3, 0, 327623, 4, 0, 327624, 4, 0, 327625, 4, 0, 327626, 4, 0, 327627, 4, 0, 327628, 4, 0, 327629, 4, 0, 327630, 4, 0, 327631, 4, 0, 327632, 4, 0, 327633, 4, 0, 327634, 4, 0, 327635, 4, 0, 327636, 7, 0, 327637, 7, 0, 327638, 7, 0, 327639, 7, 0, 327640, 7, 0, 327641, 7, 0, 327642, 7, 0, 327643, 7, 0, 327644, 7, 0, 327645, 7, 0, 327646, 7, 0, 327647, 8, 0, 327653, 3, 0, 327654, 4, 0, 327655, 4, 0, 327656, 4, 0, 327657, 4, 0, 327658, 4, 0, 327659, 4, 0, 327660, 4, 0, 327661, 4, 0, 327662, 4, 0, 327663, 4, 0, 327664, 4, 0, 327665, 4, 0, 327666, 4, 0, 327667, 4, 0, 327668, 4, 0, 327669, 4, 0, 327670, 4, 0, 327671, 4, 0, 327672, 4, 0, 327673, 4, 0, 327674, 4, 0, 327675, 4, 0, 327676, 4, 0, 327677, 4, 0, 327678, 4, 0, 327679, 4, 0, 262144, 4, 0, 262145, 4, 0, 262146, 4, 0, 262147, 4, 0, 262148, 4, 0, 262149, 4, 0, 262150, 4, 0, 262151, 4, 0, 262152, 4, 0, 262153, 4, 0, 262154, 4, 0, 262155, 4, 0, 262156, 4, 0, 262157, 4, 0, 262158, 4, 0, 262159, 4, 0, 262160, 4, 0, 262161, 4, 0, 262162, 6, 0, 262163, 7, 0, 262164, 7, 0, 262165, 7, 0, 262166, 7, 0, 262167, 7, 0, 262168, 7, 0, 262169, 7, 0, 262170, 7, 0, 262171, 7, 0, 262172, 7, 0, 262173, 7, 0, 262174, 7, 0, 262175, 7, 0, 262176, 7, 0, 262177, 7, 0, 262178, 7, 0, 262179, 7, 0, 262180, 7, 0, 262181, 7, 0, 262182, 7, 0, 262183, 7, 0, 262184, 7, 0, 262185, 7, 0, 262186, 7, 0, 262187, 7, 0, 262188, 7, 0, 262189, 7, 0, 262190, 7, 0, 262191, 7, 0, 262192, 7, 0, 262193, 7, 0, 262194, 7, 0, 262195, 7, 0, 262196, 7, 0, 262197, 7, 0, 262198, 7, 0, 262199, 7, 0, 262200, 7, 0, 262201, 7, 0, 262202, 7, 0, 262203, 7, 0, 262204, 7, 0, 262205, 7, 0, 262206, 7, 0, 262207, 7, 0, 262208, 7, 0, 262209, 7, 0, 262210, 7, 0, 262211, 7, 0, 262212, 7, 0, 262213, 7, 0, 262214, 7, 0, 262215, 7, 0, 262216, 7, 0, 262217, 7, 0, 262218, 7, 0, 262219, 7, 0, 262220, 7, 0, 262221, 7, 0, 262222, 7, 0, 262223, 7, 0, 262224, 7, 0, 262225, 7, 0, 262226, 7, 0, 262227, 7, 0, 262228, 7, 0, 262229, 7, 0, 262230, 7, 0, 262231, 7, 0, 262232, 7, 0, 262233, 7, 0, 262234, 7, 0, 262235, 7, 0, 262236, 7, 0, 262237, 7, 0, 262238, 7, 0, 262239, 7, 0, 262240, 7, 0, 262241, 7, 0, 262242, 7, 0, 262243, 7, 0, 262244, 7, 0, 262245, 7, 0, 262246, 7, 0, 262247, 7, 0, 262248, 7, 0, 262249, 7, 0, 262250, 7, 0, 393138, 7, 0, 393139, 7, 0, 393140, 7, 0, 393141, 7, 0, 393142, 7, 0, 393143, 7, 0, 393144, 7, 0, 393145, 7, 0, 393146, 7, 0, 393147, 7, 0, 393148, 7, 0, 393149, 7, 0, 393150, 7, 0, 393151, 7, 0, 393152, 7, 0, 393153, 7, 0, 393154, 7, 0, 393155, 8, 0, 393158, 6, 0, 393159, 7, 0, 393160, 7, 0, 393161, 7, 0, 393162, 7, 0, 393163, 7, 0, 393164, 7, 0, 393165, 7, 0, 393166, 7, 0, 393167, 7, 0, 393168, 7, 0, 393169, 7, 0, 393170, 7, 0, 393171, 7, 0, 393172, 7, 0, 393173, 7, 0, 393174, 7, 0, 393175, 7, 0, 393176, 7, 0, 393177, 7, 0, 393178, 7, 0, 393179, 7, 0, 393180, 7, 0, 393181, 7, 0, 393182, 7, 0, 393183, 8, 0, 393189, 6, 0, 393190, 7, 0, 393191, 7, 0, 393192, 7, 0, 393193, 7, 0, 393194, 7, 0, 393195, 7, 0, 393196, 7, 0, 393197, 7, 0, 393198, 7, 0, 393199, 7, 0, 393200, 7, 0, 393201, 7, 0, 393202, 7, 0, 393203, 7, 0, 393204, 7, 0, 393205, 7, 0, 393206, 7, 0, 393207, 7, 0, 393208, 7, 0, 393209, 7, 0, 393210, 7, 0, 393211, 7, 0, 393212, 7, 0, 393213, 7, 0, 393214, 7, 0, 393215, 7, 0, 327680, 7, 0, 327681, 7, 0, 327682, 7, 0, 327683, 7, 0, 327684, 7, 0, 327685, 7, 0, 327686, 7, 0, 327687, 7, 0, 327688, 7, 0, 327689, 7, 0, 327690, 7, 0, 327691, 7, 0, 327692, 7, 0, 327693, 7, 0, 327694, 7, 0, 327695, 7, 0, 327696, 7, 0, 327697, 7, 0, 327698, 7, 0, 327699, 7, 0, 327700, 7, 0, 327701, 7, 0, 327702, 7, 0, 327703, 7, 0, 327704, 7, 0, 327705, 7, 0, 327706, 7, 0, 327707, 7, 0, 327708, 7, 0, 327709, 7, 0, 327710, 7, 0, 327711, 7, 0, 327712, 7, 0, 327713, 7, 0, 327714, 7, 0, 327715, 7, 0, 327716, 7, 0, 327717, 7, 0, 327718, 7, 0, 327719, 7, 0, 327720, 7, 0, 327721, 7, 0, 327722, 7, 0, 327723, 7, 0, 327724, 7, 0, 327725, 7, 0, 327726, 7, 0, 327727, 7, 0, 327728, 7, 0, 327729, 7, 0, 327730, 7, 0, 327731, 7, 0, 327732, 7, 0, 327733, 7, 0, 327734, 7, 0, 327735, 7, 0, 327736, 7, 0, 327737, 7, 0, 327738, 7, 0, 327739, 7, 0, 327740, 7, 0, 327741, 7, 0, 327742, 7, 0, 327743, 7, 0, 327744, 7, 0, 327745, 7, 0, 327746, 7, 0, 327747, 7, 0, 327748, 7, 0, 327749, 7, 0, 327750, 7, 0, 327751, 7, 0, 327752, 7, 0, 327753, 7, 0, 327754, 7, 0, 327755, 7, 0, 327756, 7, 0, 327757, 7, 0, 327758, 7, 0, 327759, 7, 0, 327760, 7, 0, 327761, 7, 0, 327762, 7, 0, 327763, 7, 0, 327764, 7, 0, 327765, 7, 0, 327766, 7, 0, 327767, 7, 0, 327768, 7, 0, 327769, 7, 0, 327770, 7, 0, 327771, 7, 0, 327772, 7, 0, 327773, 7, 0, 327774, 7, 0, 327775, 7, 0, 327776, 7, 0, 327777, 7, 0, 327778, 7, 0, 327779, 7, 0, 327780, 7, 0, 327781, 7, 0, 327782, 7, 0, 327783, 7, 0, 327784, 7, 0, 327785, 7, 0, 327786, 7, 0, 458674, 7, 0, 458675, 7, 0, 458676, 7, 0, 458677, 7, 0, 458678, 7, 0, 458679, 7, 0, 458680, 7, 0, 458681, 7, 0, 458682, 7, 0, 458683, 7, 0, 458684, 7, 0, 458685, 7, 0, 458686, 7, 0, 458687, 7, 0, 458688, 7, 0, 458689, 7, 0, 458690, 7, 0, 458691, 8, 0, 458694, 6, 0, 458695, 7, 0, 458696, 7, 0, 458697, 7, 0, 458698, 7, 0, 458699, 7, 0, 458700, 7, 0, 458701, 7, 0, 458702, 7, 0, 458703, 7, 0, 458704, 7, 0, 458705, 7, 0, 458706, 7, 0, 458707, 7, 0, 458708, 7, 0, 458709, 7, 0, 458710, 7, 0, 458711, 7, 0, 458712, 7, 0, 458713, 7, 0, 458714, 7, 0, 458715, 7, 0, 458716, 7, 0, 458717, 7, 0, 458718, 7, 0, 458719, 8, 0, 458725, 6, 0, 458726, 7, 0, 458727, 7, 0, 458728, 7, 0, 458729, 7, 0, 458730, 7, 0, 458731, 7, 0, 458732, 7, 0, 458733, 7, 0, 458734, 7, 0, 458735, 7, 0, 458736, 7, 0, 458737, 7, 0, 458738, 7, 0, 458739, 7, 0, 458740, 7, 0, 458741, 7, 0, 458742, 7, 0, 458743, 7, 0, 458744, 7, 0, 458745, 7, 0, 458746, 7, 0, 458747, 7, 0, 458748, 7, 0, 458749, 7, 0, 458750, 7, 0, 458751, 7, 0, 393216, 7, 0, 393217, 7, 0, 393218, 7, 0, 393219, 7, 0, 393220, 7, 0, 393221, 7, 0, 393222, 7, 0, 393223, 7, 0, 393224, 7, 0, 393225, 7, 0, 393226, 7, 0, 393227, 7, 0, 393228, 7, 0, 393229, 7, 0, 393230, 7, 0, 393231, 7, 0, 393232, 7, 0, 393233, 7, 0, 393234, 7, 0, 393235, 7, 0, 393236, 7, 0, 393237, 7, 0, 393238, 7, 0, 393239, 7, 0, 393240, 7, 0, 393241, 7, 0, 393242, 7, 0, 393243, 7, 0, 393244, 7, 0, 393245, 7, 0, 393246, 7, 0, 393247, 7, 0, 393248, 7, 0, 393249, 7, 0, 393250, 7, 0, 393251, 7, 0, 393252, 7, 0, 393253, 7, 0, 393254, 7, 0, 393255, 7, 0, 393256, 7, 0, 393257, 7, 0, 393258, 7, 0, 393259, 7, 0, 393260, 7, 0, 393261, 7, 0, 393262, 7, 0, 393263, 7, 0, 393264, 7, 0, 393265, 7, 0, 393266, 7, 0, 393267, 7, 0, 393268, 7, 0, 393269, 7, 0, 393270, 7, 0, 393271, 7, 0, 393272, 7, 0, 393273, 7, 0, 393274, 7, 0, 393275, 7, 0, 393276, 7, 0, 393277, 7, 0, 393278, 7, 0, 393279, 7, 0, 393280, 7, 0, 393281, 7, 0, 393282, 7, 0, 393283, 7, 0, 393284, 7, 0, 393285, 7, 0, 393286, 7, 0, 393287, 7, 0, 393288, 7, 0, 393289, 7, 0, 393290, 7, 0, 393291, 7, 0, 393292, 7, 0, 393293, 7, 0, 393294, 7, 0, 393295, 7, 0, 393296, 7, 0, 393297, 7, 0, 393298, 7, 0, 393299, 7, 0, 393300, 7, 0, 393301, 7, 0, 393302, 7, 0, 393303, 7, 0, 393304, 7, 0, 393305, 7, 0, 393306, 7, 0, 393307, 7, 0, 393308, 7, 0, 393309, 7, 0, 393310, 7, 0, 393311, 7, 0, 393312, 7, 0, 393313, 7, 0, 393314, 7, 0, 393315, 7, 0, 393316, 7, 0, 393317, 7, 0, 393318, 7, 0, 393319, 7, 0, 393320, 7, 0, 393321, 7, 0, 393322, 7, 0, 524210, 7, 0, 524211, 7, 0, 524212, 7, 0, 524213, 7, 0, 524214, 7, 0, 524215, 7, 0, 524216, 7, 0, 524217, 7, 0, 524218, 7, 0, 524219, 7, 0, 524220, 7, 0, 524221, 7, 0, 524222, 7, 0, 524223, 7, 0, 524224, 7, 0, 524225, 7, 0, 524226, 7, 0, 524227, 8, 0, 524261, 6, 0, 524262, 7, 0, 524263, 7, 0, 524264, 7, 0, 524265, 7, 0, 524266, 7, 0, 524267, 7, 0, 524268, 7, 0, 524269, 7, 0, 524270, 7, 0, 524271, 7, 0, 524272, 7, 0, 524273, 7, 0, 524274, 7, 0, 524275, 7, 0, 524276, 7, 0, 524277, 7, 0, 524278, 7, 0, 524279, 7, 0, 524280, 7, 0, 524281, 7, 0, 524282, 7, 0, 524283, 7, 0, 524284, 7, 0, 524285, 7, 0, 524286, 7, 0, 524287, 7, 0, 458752, 7, 0, 458753, 7, 0, 458754, 7, 0, 458755, 7, 0, 458756, 7, 0, 458757, 7, 0, 458758, 7, 0, 458759, 7, 0, 458760, 7, 0, 458761, 7, 0, 458762, 7, 0, 458763, 7, 0, 458764, 7, 0, 458765, 7, 0, 458766, 7, 0, 458767, 7, 0, 458768, 7, 0, 458769, 7, 0, 458770, 7, 0, 458771, 7, 0, 458772, 7, 0, 458773, 7, 0, 458774, 7, 0, 458775, 7, 0, 458776, 7, 0, 458777, 7, 0, 458778, 7, 0, 458779, 7, 0, 458780, 7, 0, 458781, 7, 0, 458782, 7, 0, 458783, 7, 0, 458784, 7, 0, 458785, 7, 0, 458786, 7, 0, 458787, 7, 0, 458788, 7, 0, 458789, 7, 0, 458790, 7, 0, 458791, 7, 0, 458792, 7, 0, 458793, 7, 0, 458794, 7, 0, 458795, 7, 0, 458796, 7, 0, 458797, 7, 0, 458798, 7, 0, 458799, 7, 0, 458800, 7, 0, 458801, 7, 0, 458802, 7, 0, 458803, 7, 0, 458804, 7, 0, 458805, 7, 0, 458806, 7, 0, 458807, 7, 0, 458808, 7, 0, 458809, 7, 0, 458810, 7, 0, 458811, 7, 0, 458812, 7, 0, 458813, 7, 0, 458814, 7, 0, 458815, 7, 0, 458816, 7, 0, 458817, 7, 0, 458818, 7, 0, 458819, 7, 0, 458820, 7, 0, 458821, 7, 0, 458822, 7, 0, 458823, 7, 0, 458824, 7, 0, 458825, 7, 0, 458826, 7, 0, 458827, 7, 0, 458828, 7, 0, 458829, 7, 0, 458830, 7, 0, 458831, 7, 0, 458832, 7, 0, 458833, 7, 0, 458834, 7, 0, 458835, 7, 0, 458836, 7, 0, 458837, 7, 0, 458838, 7, 0, 458839, 7, 0, 458840, 7, 0, 458841, 7, 0, 458842, 7, 0, 458843, 7, 0, 458844, 7, 0, 458845, 7, 0, 458846, 7, 0, 458847, 7, 0, 458848, 7, 0, 458849, 7, 0, 458850, 7, 0, 458851, 7, 0, 458852, 7, 0, 458853, 7, 0, 458854, 7, 0, 458855, 7, 0, 458856, 7, 0, 458857, 7, 0, 458858, 7, 0, 589746, 7, 0, 589747, 7, 0, 589748, 7, 0, 589749, 7, 0, 589750, 7, 0, 589751, 7, 0, 589752, 7, 0, 589753, 7, 0, 589754, 7, 0, 589755, 7, 0, 589756, 7, 0, 589757, 7, 0, 589758, 7, 0, 589759, 7, 0, 589760, 7, 0, 589761, 7, 0, 589762, 7, 0, 589763, 8, 0, 589797, 6, 0, 589798, 7, 0, 589799, 7, 0, 589800, 7, 0, 589801, 7, 0, 589802, 7, 0, 589803, 7, 0, 589804, 7, 0, 589805, 7, 0, 589806, 7, 0, 589807, 7, 0, 589808, 7, 0, 589809, 7, 0, 589810, 7, 0, 589811, 7, 0, 589812, 7, 0, 589813, 7, 0, 589814, 7, 0, 589815, 7, 0, 589816, 7, 0, 589817, 7, 0, 589818, 7, 0, 589819, 7, 0, 589820, 7, 0, 589821, 7, 0, 589822, 7, 0, 589823, 7, 0, 524288, 7, 0, 524289, 7, 0, 524290, 7, 0, 524291, 7, 0, 524292, 7, 0, 524293, 7, 0, 524294, 7, 0, 524295, 7, 0, 524296, 7, 0, 524297, 7, 0, 524298, 7, 0, 524299, 7, 0, 524300, 7, 0, 524301, 7, 0, 524302, 7, 0, 524303, 7, 0, 524304, 7, 0, 524305, 7, 0, 524306, 7, 0, 524307, 7, 0, 524308, 7, 0, 524309, 7, 0, 524310, 7, 0, 524311, 7, 0, 524312, 7, 0, 524313, 7, 0, 524314, 7, 0, 524315, 7, 0, 524316, 7, 0, 524317, 7, 0, 524318, 7, 0, 524319, 7, 0, 524320, 7, 0, 524321, 7, 0, 524322, 7, 0, 524323, 7, 0, 524324, 7, 0, 524325, 7, 0, 524326, 7, 0, 524327, 7, 0, 524328, 7, 0, 524329, 7, 0, 524330, 7, 0, 524331, 7, 0, 524332, 7, 0, 524333, 7, 0, 524334, 7, 0, 524335, 7, 0, 524336, 7, 0, 524337, 7, 0, 524338, 7, 0, 524339, 7, 0, 524340, 7, 0, 524341, 7, 0, 524342, 7, 0, 524343, 7, 0, 524344, 7, 0, 524345, 7, 0, 524346, 7, 0, 524347, 7, 0, 524348, 7, 0, 524349, 7, 0, 524350, 7, 0, 524351, 7, 0, 524352, 7, 0, 524353, 7, 0, 524354, 7, 0, 524355, 7, 0, 524356, 7, 0, 524357, 7, 0, 524358, 7, 0, 524359, 7, 0, 524360, 7, 0, 524361, 7, 0, 524362, 7, 0, 524363, 7, 0, 524364, 7, 0, 524365, 7, 0, 524366, 7, 0, 524367, 7, 0, 524368, 7, 0, 524369, 7, 0, 524370, 7, 0, 524371, 7, 0, 524372, 7, 0, 524373, 7, 0, 524374, 7, 0, 524375, 7, 0, 524376, 7, 0, 524377, 7, 0, 524378, 7, 0, 524379, 7, 0, 524380, 7, 0, 524381, 7, 0, 524382, 7, 0, 524383, 7, 0, 524384, 7, 0, 524385, 7, 0, 524386, 7, 0, 524387, 7, 0, 524388, 7, 0, 524389, 7, 0, 524390, 7, 0, 524391, 7, 0, 524392, 7, 0, 524393, 7, 0, 524394, 7, 0, 655282, 7, 0, 655283, 7, 0, 655284, 7, 0, 655285, 7, 0, 655286, 7, 0, 655287, 7, 0, 655288, 7, 0, 655289, 7, 0, 655290, 7, 0, 655291, 7, 0, 655292, 7, 0, 655293, 7, 0, 655294, 7, 0, 655295, 7, 0, 655296, 7, 0, 655297, 7, 0, 655298, 7, 0, 655299, 8, 0, 655320, 0, 0, 655321, 1, 0, 655322, 1, 0, 655323, 1, 0, 655324, 1, 0, 655325, 1, 0, 655326, 1, 0, 655327, 1, 0, 655328, 1, 0, 655329, 1, 0, 655330, 1, 0, 655331, 1, 0, 655332, 1, 0, 655333, 6, 0, 655334, 7, 0, 655335, 7, 0, 655336, 7, 0, 655337, 7, 0, 655338, 7, 0, 655339, 7, 0, 655340, 7, 0, 655341, 7, 0, 655342, 7, 0, 655343, 7, 0, 655344, 7, 0, 655345, 7, 0, 655346, 7, 0, 655347, 7, 0, 655348, 7, 0, 655349, 7, 0, 655350, 7, 0, 655351, 7, 0, 655352, 7, 0, 655353, 7, 0, 655354, 7, 0, 655355, 7, 0, 655356, 7, 0, 655357, 7, 0, 655358, 7, 0, 655359, 7, 0, 589824, 7, 0, 589825, 7, 0, 589826, 7, 0, 589827, 7, 0, 589828, 7, 0, 589829, 7, 0, 589830, 7, 0, 589831, 7, 0, 589832, 7, 0, 589833, 7, 0, 589834, 7, 0, 589835, 7, 0, 589836, 7, 0, 589837, 7, 0, 589838, 7, 0, 589839, 7, 0, 589840, 7, 0, 589841, 7, 0, 589842, 7, 0, 589843, 7, 0, 589844, 7, 0, 589845, 7, 0, 589846, 7, 0, 589847, 7, 0, 589848, 7, 0, 589849, 7, 0, 589850, 7, 0, 589851, 7, 0, 589852, 7, 0, 589853, 7, 0, 589854, 7, 0, 589855, 7, 0, 589856, 7, 0, 589857, 7, 0, 589858, 7, 0, 589859, 7, 0, 589860, 7, 0, 589861, 7, 0, 589862, 7, 0, 589863, 7, 0, 589864, 7, 0, 589865, 7, 0, 589866, 7, 0, 589867, 7, 0, 589868, 7, 0, 589869, 7, 0, 589870, 7, 0, 589871, 7, 0, 589872, 7, 0, 589873, 7, 0, 589874, 7, 0, 589875, 7, 0, 589876, 7, 0, 589877, 7, 0, 589878, 7, 0, 589879, 7, 0, 589880, 7, 0, 589881, 7, 0, 589882, 7, 0, 589883, 7, 0, 589884, 7, 0, 589885, 7, 0, 589886, 7, 0, 589887, 7, 0, 589888, 7, 0, 589889, 7, 0, 589890, 7, 0, 589891, 7, 0, 589892, 7, 0, 589893, 7, 0, 589894, 7, 0, 589895, 7, 0, 589896, 7, 0, 589897, 7, 0, 589898, 7, 0, 589899, 7, 0, 589900, 7, 0, 589901, 7, 0, 589902, 7, 0, 589903, 7, 0, 589904, 7, 0, 589905, 7, 0, 589906, 7, 0, 589907, 7, 0, 589908, 7, 0, 589909, 7, 0, 589910, 7, 0, 589911, 7, 0, 589912, 7, 0, 589913, 7, 0, 589914, 7, 0, 589915, 7, 0, 589916, 7, 0, 589917, 7, 0, 589918, 7, 0, 589919, 7, 0, 589920, 7, 0, 589921, 7, 0, 589922, 7, 0, 589923, 7, 0, 589924, 7, 0, 589925, 7, 0, 589926, 7, 0, 589927, 7, 0, 589928, 7, 0, 589929, 7, 0, 589930, 7, 0, 720818, 7, 0, 720819, 7, 0, 720820, 7, 0, 720821, 7, 0, 720822, 7, 0, 720823, 7, 0, 720824, 7, 0, 720825, 7, 0, 720826, 7, 0, 720827, 7, 0, 720828, 7, 0, 720829, 7, 0, 720830, 7, 0, 720831, 7, 0, 720832, 7, 0, 720833, 7, 0, 720834, 7, 0, 720835, 8, 0, 720856, 4, 0, 720857, 4, 0, 720858, 4, 0, 720859, 4, 0, 720860, 4, 0, 720861, 4, 0, 720862, 4, 0, 720863, 4, 0, 720864, 4, 0, 720865, 4, 0, 720866, 4, 0, 720867, 4, 0, 720868, 4, 0, 720869, 6, 0, 720870, 7, 0, 720871, 7, 0, 720872, 7, 0, 720873, 7, 0, 720874, 7, 0, 720875, 7, 0, 720876, 7, 0, 720877, 7, 0, 720878, 7, 0, 720879, 7, 0, 720880, 7, 0, 720881, 7, 0, 720882, 7, 0, 720883, 7, 0, 720884, 7, 0, 720885, 7, 0, 720886, 7, 0, 720887, 7, 0, 720888, 7, 0, 720889, 7, 0, 720890, 7, 0, 720891, 7, 0, 720892, 7, 0, 720893, 7, 0, 720894, 7, 0, 720895, 7, 0, 655360, 7, 0, 655361, 7, 0, 655362, 7, 0, 655363, 7, 0, 655364, 7, 0, 655365, 7, 0, 655366, 7, 0, 655367, 7, 0, 655368, 7, 0, 655369, 7, 0, 655370, 7, 0, 655371, 7, 0, 655372, 7, 0, 655373, 7, 0, 655374, 7, 0, 655375, 7, 0, 655376, 7, 0, 655377, 7, 0, 655378, 7, 0, 655379, 7, 0, 655380, 7, 0, 655381, 7, 0, 655382, 7, 0, 655383, 7, 0, 655384, 7, 0, 655385, 7, 0, 655386, 7, 0, 655387, 7, 0, 655388, 7, 0, 655389, 7, 0, 655390, 7, 0, 655391, 7, 0, 655392, 7, 0, 655393, 7, 0, 655394, 7, 0, 655395, 7, 0, 655396, 7, 0, 655397, 7, 0, 655398, 7, 0, 655399, 7, 0, 655400, 7, 0, 655401, 7, 0, 655402, 7, 0, 655403, 7, 0, 655404, 7, 0, 655405, 7, 0, 655406, 7, 0, 655407, 7, 0, 655408, 7, 0, 655409, 7, 0, 655410, 7, 0, 655411, 7, 0, 655412, 7, 0, 655413, 7, 0, 655414, 7, 0, 655415, 7, 0, 655416, 7, 0, 655417, 7, 0, 655418, 7, 0, 655419, 7, 0, 655420, 7, 0, 655421, 7, 0, 655422, 7, 0, 655423, 7, 0, 655424, 7, 0, 655425, 7, 0, 655426, 7, 0, 655427, 7, 0, 655428, 7, 0, 655429, 7, 0, 655430, 7, 0, 655431, 7, 0, 655432, 7, 0, 655433, 7, 0, 655434, 7, 0, 655435, 7, 0, 655436, 7, 0, 655437, 7, 0, 655438, 7, 0, 655439, 7, 0, 655440, 7, 0, 655441, 7, 0, 655442, 7, 0, 655443, 7, 0, 655444, 7, 0, 655445, 7, 0, 655446, 7, 0, 655447, 7, 0, 655448, 7, 0, 655449, 7, 0, 655450, 7, 0, 655451, 7, 0, 655452, 7, 0, 655453, 7, 0, 655454, 7, 0, 655455, 7, 0, 655456, 7, 0, 655457, 7, 0, 655458, 7, 0, 655459, 7, 0, 655460, 7, 0, 655461, 7, 0, 655462, 7, 0, 655463, 7, 0, 655464, 7, 0, 655465, 7, 0, 655466, 7, 0, 786354, 7, 0, 786355, 7, 0, 786356, 7, 0, 786357, 7, 0, 786358, 7, 0, 786359, 7, 0, 786360, 7, 0, 786361, 7, 0, 786362, 7, 0, 786363, 7, 0, 786364, 7, 0, 786365, 7, 0, 786366, 7, 0, 786367, 7, 0, 786368, 7, 0, 786369, 7, 0, 786370, 7, 0, 786371, 8, 0, 786372, 1, 0, 786373, 1, 0, 786374, 1, 0, 786375, 1, 0, 786376, 1, 0, 786377, 1, 0, 786378, 1, 0, 786379, 1, 0, 786380, 1, 0, 786381, 1, 0, 786382, 1, 0, 786383, 1, 0, 786384, 1, 0, 786385, 1, 0, 786386, 1, 0, 786387, 1, 0, 786391, 7, 0, 786392, 7, 0, 786393, 7, 0, 786394, 7, 0, 786395, 7, 0, 786396, 7, 0, 786397, 7, 0, 786398, 7, 0, 786399, 7, 0, 786400, 7, 0, 786401, 7, 0, 786402, 7, 0, 786403, 7, 0, 786404, 7, 0, 786405, 7, 0, 786406, 7, 0, 786407, 7, 0, 786408, 7, 0, 786409, 7, 0, 786410, 7, 0, 786411, 7, 0, 786412, 7, 0, 786413, 7, 0, 786414, 7, 0, 786415, 7, 0, 786416, 7, 0, 786417, 10, 0, 786418, 10, 0, 786419, 10, 0, 786420, 10, 0, 786421, 10, 0, 786422, 10, 0, 786423, 10, 0, 786424, 10, 0, 786425, 10, 0, 786426, 10, 0, 786427, 10, 0, 786428, 10, 0, 786429, 10, 0, 786430, 10, 0, 786431, 10, 0, 720896, 10, 0, 720897, 10, 0, 720898, 10, 0, 720899, 10, 0, 720900, 10, 0, 720901, 10, 0, 720902, 10, 0, 720903, 10, 0, 720904, 10, 0, 720905, 10, 0, 720906, 10, 0, 720907, 10, 0, 720908, 10, 0, 720909, 10, 0, 720910, 10, 0, 720911, 10, 0, 720912, 10, 0, 720913, 10, 0, 720914, 10, 0, 720915, 10, 0, 720916, 10, 0, 720917, 10, 0, 720918, 10, 0, 720919, 10, 0, 720920, 10, 0, 720921, 10, 0, 720922, 10, 0, 720923, 10, 0, 720924, 10, 0, 720925, 10, 0, 720926, 10, 0, 720927, 10, 0, 720928, 10, 0, 720929, 10, 0, 720930, 10, 0, 720931, 10, 0, 720932, 10, 0, 720933, 10, 0, 720934, 10, 0, 720935, 10, 0, 720936, 10, 0, 720937, 10, 0, 720938, 10, 0, 720939, 10, 0, 720940, 10, 0, 720941, 10, 0, 720942, 10, 0, 720943, 10, 0, 720944, 10, 0, 720945, 10, 0, 720946, 10, 0, 720947, 10, 0, 720948, 10, 0, 720949, 10, 0, 720950, 10, 0, 720951, 10, 0, 720952, 10, 0, 720953, 10, 0, 720954, 10, 0, 720955, 10, 0, 720956, 10, 0, 720957, 10, 0, 720958, 10, 0, 720959, 10, 0, 720960, 10, 0, 720961, 10, 0, 720962, 10, 0, 720963, 10, 0, 720964, 10, 0, 720965, 10, 0, 720966, 10, 0, 720967, 10, 0, 720968, 10, 0, 720969, 10, 0, 720970, 10, 0, 720971, 10, 0, 720972, 10, 0, 720973, 10, 0, 720974, 10, 0, 720975, 10, 0, 720976, 10, 0, 720977, 10, 0, 720978, 10, 0, 720979, 10, 0, 720980, 10, 0, 720981, 10, 0, 720982, 10, 0, 720983, 10, 0, 720984, 10, 0, 720985, 10, 0, 720986, 10, 0, 720987, 10, 0, 720988, 10, 0, 720989, 10, 0, 720990, 10, 0, 720991, 10, 0, 720992, 10, 0, 720993, 10, 0, 720994, 10, 0, 720995, 10, 0, 720996, 10, 0, 720997, 10, 0, 720998, 10, 0, 720999, 10, 0, 721000, 10, 0, 721001, 10, 0, 721002, 10, 0, 851890, 7, 0, 851891, 7, 0, 851892, 7, 0, 851893, 7, 0, 851894, 7, 0, 851895, 7, 0, 851896, 7, 0, 851897, 7, 0, 851898, 7, 0, 851899, 7, 0, 851900, 7, 0, 851901, 7, 0, 851902, 7, 0, 851903, 7, 0, 851904, 7, 0, 851905, 7, 0, 851906, 7, 0, 851907, 8, 0, 851908, 4, 0, 851909, 4, 0, 851910, 4, 0, 851911, 4, 0, 851912, 4, 0, 851913, 4, 0, 851914, 4, 0, 851915, 4, 0, 851916, 4, 0, 851917, 4, 0, 851918, 4, 0, 851919, 4, 0, 851920, 4, 0, 851921, 4, 0, 851922, 4, 0, 851923, 4, 0, 851925, 7, 0, 851926, 7, 0, 851927, 7, 0, 851928, 7, 0, 851929, 7, 0, 851930, 7, 0, 851931, 7, 0, 851932, 7, 0, 851933, 7, 0, 851934, 7, 0, 851935, 7, 0, 851936, 7, 0, 851937, 7, 0, 851938, 7, 0, 851939, 7, 0, 851940, 7, 0, 851941, 7, 0, 851942, 7, 0, 851943, 7, 0, 851944, 7, 0, 851945, 7, 0, 851946, 7, 0, 851947, 7, 0, 851948, 7, 0, 851949, 7, 0, 851950, 7, 0, 851951, 7, 0, 851952, 7, 0, 917426, 7, 0, 917427, 7, 0, 917428, 7, 0, 917429, 7, 0, 917430, 7, 0, 917431, 7, 0, 917432, 7, 0, 917433, 7, 0, 917434, 7, 0, 917435, 7, 0, 917436, 7, 0, 917437, 7, 0, 917438, 7, 0, 917439, 7, 0, 917440, 7, 0, 917441, 7, 0, 917442, 7, 0, 917443, 7, 0, 917444, 7, 0, 917445, 7, 0, 917446, 7, 0, 917447, 7, 0, 917448, 7, 0, 917449, 7, 0, 917450, 7, 0, 917451, 7, 0, 917452, 7, 0, 917453, 7, 0, 917454, 7, 0, 917455, 7, 0, 917456, 7, 0, 917457, 7, 0, 917458, 7, 0, 917459, 7, 0, 917460, 7, 0, 917461, 7, 0, 917462, 7, 0, 917463, 7, 0, 917464, 7, 0, 917465, 7, 0, 917466, 7, 0, 917467, 7, 0, 917468, 7, 0, 917469, 7, 0, 917470, 7, 0, 917471, 7, 0, 917472, 7, 0, 917473, 7, 0, 917474, 7, 0, 917475, 7, 0, 917476, 7, 0, 917477, 7, 0, 917478, 7, 0, 917479, 7, 0, 917480, 7, 0, 917481, 7, 0, 917482, 7, 0, 917483, 7, 0, 917484, 7, 0, 917485, 7, 0, 917486, 7, 0, 917487, 7, 0, 917488, 7, 0, 982962, 7, 0, 982963, 7, 0, 982964, 7, 0, 982965, 7, 0, 982966, 7, 0, 982967, 7, 0, 982968, 7, 0, 982969, 7, 0, 982970, 7, 0, 982971, 7, 0, 982972, 7, 0, 982973, 7, 0, 982974, 7, 0, 982975, 7, 0, 982976, 7, 0, 982977, 7, 0, 982978, 7, 0, 982979, 7, 0, 982980, 7, 0, 982981, 7, 0, 982982, 7, 0, 982983, 7, 0, 982984, 7, 0, 982985, 7, 0, 982986, 7, 0, 982987, 7, 0, 982988, 7, 0, 982989, 7, 0, 982990, 7, 0, 982991, 7, 0, 982992, 7, 0, 982993, 7, 0, 982994, 7, 0, 982995, 7, 0, 982996, 7, 0, 982997, 7, 0, 982998, 7, 0, 982999, 7, 0, 983000, 7, 0, 983001, 7, 0, 983002, 7, 0, 983003, 7, 0, 983004, 7, 0, 983005, 7, 0, 983006, 7, 0, 983007, 7, 0, 983008, 7, 0, 983009, 7, 0, 983010, 7, 0, 983011, 7, 0, 983012, 7, 0, 983013, 7, 0, 983014, 7, 0, 983015, 7, 0, 983016, 7, 0, 983017, 7, 0, 983018, 7, 0, 983019, 7, 0, 983020, 7, 0, 983021, 7, 0, 983022, 7, 0, 983023, 7, 0, 983024, 7, 0, 1048498, 7, 0, 1048499, 7, 0, 1048500, 7, 0, 1048501, 7, 0, 1048502, 7, 0, 1048503, 7, 0, 1048504, 7, 0, 1048505, 7, 0, 1048506, 7, 0, 1048507, 7, 0, 1048508, 7, 0, 1048509, 7, 0, 1048510, 7, 0, 1048511, 7, 0, 1048512, 7, 0, 1048513, 7, 0, 1048514, 7, 0, 1048515, 7, 0, 1048516, 7, 0, 1048517, 7, 0, 1048518, 7, 0, 1048519, 7, 0, 1048520, 7, 0, 1048521, 7, 0, 1048522, 7, 0, 1048523, 7, 0, 1048524, 7, 0, 1048525, 7, 0, 1048526, 7, 0, 1048527, 7, 0, 1048528, 7, 0, 1048529, 7, 0, 1048530, 7, 0, 1048531, 7, 0, 1048532, 7, 0, 1048533, 7, 0, 1048534, 7, 0, 1048535, 7, 0, 1048536, 7, 0, 1048537, 7, 0, 1048538, 7, 0, 1048539, 7, 0, 1048540, 7, 0, 1048541, 7, 0, 1048542, 7, 0, 1048543, 7, 0, 1048544, 7, 0, 1048545, 7, 0, 1048546, 7, 0, 1048547, 7, 0, 1048548, 7, 0, 1048549, 7, 0, 1048550, 7, 0, 1048551, 7, 0, 1048552, 7, 0, 1048553, 7, 0, 1048554, 7, 0, 1048555, 7, 0, 1048556, 7, 0, 1048557, 7, 0, 1048558, 7, 0, 1048559, 7, 0, 1048560, 7, 0, 1114034, 7, 0, 1114035, 7, 0, 1114036, 7, 0, 1114037, 7, 0, 1114038, 7, 0, 1114039, 7, 0, 1114040, 7, 0, 1114041, 7, 0, 1114042, 7, 0, 1114043, 7, 0, 1114044, 7, 0, 1114045, 7, 0, 1114046, 7, 0, 1114047, 7, 0, 1114048, 7, 0, 1114049, 7, 0, 1114050, 7, 0, 1114051, 7, 0, 1114052, 7, 0, 1114053, 7, 0, 1114054, 7, 0, 1114055, 7, 0, 1114056, 7, 0, 1114057, 7, 0, 1114058, 7, 0, 1114059, 7, 0, 1114060, 7, 0, 1114061, 7, 0, 1114062, 7, 0, 1114063, 7, 0, 1114064, 7, 0, 1114065, 7, 0, 1114066, 7, 0, 1114067, 7, 0, 1114068, 7, 0, 1114069, 7, 0, 1114070, 7, 0, 1114071, 7, 0, 1114072, 7, 0, 1114073, 7, 0, 1114074, 7, 0, 1114075, 7, 0, 1114076, 7, 0, 1114077, 7, 0, 1114078, 7, 0, 1114079, 7, 0, 1114080, 7, 0, 1114081, 7, 0, 1114082, 7, 0, 1114083, 7, 0, 1114084, 7, 0, 1114085, 7, 0, 1114086, 7, 0, 1114087, 7, 0, 1114088, 7, 0, 1114089, 7, 0, 1114090, 7, 0, 1114091, 7, 0, 1114092, 7, 0, 1114093, 7, 0, 1114094, 7, 0, 1114095, 7, 0, 1114096, 7, 0, 1179570, 7, 0, 1179571, 7, 0, 1179572, 7, 0, 1179573, 7, 0, 1179574, 7, 0, 1179575, 7, 0, 1179576, 7, 0, 1179577, 7, 0, 1179578, 7, 0, 1179579, 7, 0, 1179580, 7, 0, 1179581, 7, 0, 1179582, 7, 0, 1179583, 7, 0, 1179584, 7, 0, 1179585, 7, 0, 1179586, 7, 0, 1179587, 7, 0, 1179588, 7, 0, 1179589, 7, 0, 1179590, 7, 0, 1179591, 7, 0, 1179592, 7, 0, 1179593, 7, 0, 1179594, 7, 0, 1179595, 7, 0, 1179596, 7, 0, 1179597, 7, 0, 1179598, 7, 0, 1179599, 7, 0, 1179600, 7, 0, 1179601, 7, 0, 1179602, 7, 0, 1179603, 7, 0, 1179604, 7, 0, 1179605, 7, 0, 1179606, 7, 0, 1179607, 7, 0, 1179608, 7, 0, 1179609, 7, 0, 1179610, 7, 0, 1179611, 7, 0, 1179612, 7, 0, 1179613, 7, 0, 1179614, 7, 0, 1179615, 7, 0, 1179616, 7, 0, 1179617, 7, 0, 1179618, 7, 0, 1179619, 7, 0, 1179620, 7, 0, 1179621, 7, 0, 1179622, 7, 0, 1179623, 7, 0, 1179624, 7, 0, 1179625, 7, 0, 1179626, 7, 0, 1179627, 7, 0, 1179628, 7, 0, 1179629, 7, 0, 1179630, 7, 0, 1179631, 7, 0, 1179632, 7, 0, 1245106, 10, 0, 1245107, 10, 0, 1245108, 10, 0, 1245109, 10, 0, 1245110, 10, 0, 1245111, 10, 0, 1245112, 10, 0, 1245113, 10, 0, 1245114, 10, 0, 1245115, 10, 0, 1245116, 10, 0, 1245117, 10, 0, 1245118, 10, 0, 1245119, 10, 0, 1245120, 10, 0, 1245121, 10, 0, 1245122, 10, 0, 1245123, 10, 0, 1245124, 10, 0, 1245125, 10, 0, 1245126, 10, 0, 1245127, 10, 0, 1245128, 10, 0, 1245129, 10, 0, 1245130, 10, 0, 1245131, 10, 0, 1245132, 10, 0, 1245133, 10, 0, 1245134, 10, 0, 1245135, 10, 0, 1245136, 10, 0, 1245137, 10, 0, 1245138, 10, 0, 1245139, 10, 0, 1245140, 10, 0, 1245141, 10, 0, 1245142, 10, 0, 1245143, 10, 0, 1245144, 10, 0, 1245145, 10, 0, 1245146, 10, 0, 1245147, 10, 0, 1245148, 10, 0, 1245149, 10, 0, 1245150, 10, 0, 1245151, 10, 0, 1245152, 10, 0, 1245153, 10, 0, 1245154, 10, 0, 1245155, 10, 0, 1245156, 10, 0, 1245157, 10, 0, 1245158, 10, 0, 1245159, 10, 0, 1245160, 10, 0, 1245161, 10, 0, 1245162, 10, 0, 1245163, 10, 0, 1245164, 10, 0, 1245165, 10, 0, 1245166, 10, 0, 1245167, 10, 0, 1245168, 10, 0 )

[node name="BlackNoclip" type="TileMap" parent="."]
show_behind_parent = true
tile_set = ExtResource( 4 )
cell_size = Vector2( 32, 32 )
format = 1
tile_data = PoolIntArray( -1769374, 5, 0, -1769373, 6, 0, -1769367, 6, 0, -1769366, 5, 0, -1703840, 6, 0, -1703839, 5, 0, -1703838, 6, 0, -1703837, 5, 0, -1703836, 6, 0, -1703835, 5, 0, -1703834, 6, 0, -1703833, 5, 0, -1703832, 6, 0, -1703831, 5, 0, -1703830, 6, 0, -1703829, 5, 0, -1703828, 6, 0, -1638306, 5, 0, -1638305, 6, 0, -1638304, 5, 0, -1638303, 6, 0, -1638302, 5, 0, -1638301, 6, 0, -1638300, 5, 0, -1638299, 6, 0, -1638298, 5, 0, -1638297, 6, 0, -1638296, 5, 0, -1638295, 6, 0, -1638294, 5, 0, -1638293, 6, 0, -1638292, 5, 0, -1638291, 6, 0, -1638290, 5, 0, -1572772, 6, 0, -1572771, 5, 0, -1572770, 6, 0, -1572769, 5, 0, -1572768, 6, 0, -1572767, 5, 0, -1572766, 6, 0, -1572765, 5, 0, -1572764, 6, 0, -1572763, 5, 0, -1572762, 6, 0, -1572761, 5, 0, -1572760, 6, 0, -1572759, 5, 0, -1572758, 6, 0, -1572757, 5, 0, -1572756, 6, 0, -1572755, 5, 0, -1572754, 6, 0, -1572753, 5, 0, -1572752, 6, 0, -1507236, 5, 0, -1507235, 6, 0, -1507234, 5, 0, -1507233, 6, 0, -1507232, 5, 0, -1507231, 6, 0, -1507230, 5, 0, -1507229, 6, 0, -1507228, 5, 0, -1507227, 6, 0, -1507226, 5, 0, -1507225, 6, 0, -1507224, 5, 0, -1507223, 6, 0, -1507222, 5, 0, -1507221, 6, 0, -1507220, 5, 0, -1507219, 6, 0, -1507218, 5, 0, -1507217, 6, 0, -1507216, 5, 0, -1441700, 6, 0, -1441699, 5, 0, -1441698, 6, 0, -1441697, 5, 0, -1441696, 6, 0, -1441695, 5, 0, -1441694, 5, 0, -1441693, 5, 0, -1441692, 5, 0, -1441691, 5, 0, -1441690, 5, 0, -1441689, 5, 0, -1441688, 5, 0, -1441687, 5, 0, -1441686, 5, 0, -1441685, 5, 0, -1441684, 5, 0, -1441683, 5, 0, -1441682, 5, 0, -1441681, 5, 0, -1441680, 6, 0, -1376164, 5, 0, -1376163, 6, 0, -1376162, 5, 0, -1376161, 6, 0, -1376160, 5, 0, -1376159, 5, 0, -1376158, 5, 0, -1376157, 5, 0, -1376147, 5, 0, -1376146, 5, 0, -1376145, 5, 0, -1376144, 5, 0, -1310628, 6, 0, -1310627, 5, 0, -1310626, 6, 0, -1310625, 6, 0, -1310624, 5, 0, -1310623, 5, 0, -1310622, 5, 0, -1310610, 5, 0, -1310608, 5, 0, -1310607, 5, 0, -1310606, 6, 0, -1245092, 5, 0, -1245091, 6, 0, -1245090, 5, 0, -1245089, 6, 0, -1245088, 5, 0, -1245086, 5, 0, -1245074, 5, 0, -1245072, 5, 0, -1245071, 6, 0, -1245070, 5, 0, -1179556, 6, 0, -1179555, 5, 0, -1179554, 6, 0, -1179553, 5, 0, -1179552, 5, 0, -1179551, 5, 0, -1179550, 5, 0, -1179549, 2, 0, -1179548, 2, 0, -1179547, 2, 0, -1179546, 2, 0, -1179545, 2, 0, -1179544, 2, 0, -1179543, 2, 0, -1179542, 2, 0, -1179541, 2, 0, -1179540, 2, 0, -1179539, 2, 0, -1179538, 5, 0, -1179537, 5, 0, -1179536, 5, 0, -1179535, 5, 0, -1179534, 6, 0, -1114020, 5, 0, -1114019, 6, 0, -1114018, 5, 0, -1114017, 6, 0, -1113999, 6, 0, -1113998, 5, 0, -1048484, 6, 0, -1048483, 6, 0, -1048482, 6, 0, -1048481, 5, 0, -982948, 5, 0, -982947, 5, 0, -982946, 6, 0, -982945, 5, 0, -982944, 6, 0, -982943, 5, 0, -982942, 6, 0, -982941, 5, 0, -982940, 6, 0, -982939, 5, 0, -982938, 6, 0, -982937, 5, 0, -982936, 6, 0, -982935, 5, 0, -982934, 6, 0, -982933, 5, 0, -982932, 6, 0, -982931, 5, 0, -917412, 5, 0, -917411, 6, 0, -917410, 5, 0, -917409, 6, 0, -917408, 5, 0, -917407, 6, 0, -917406, 5, 0, -917405, 6, 0, -917404, 5, 0, -917403, 6, 0, -917402, 5, 0, -917401, 6, 0, -917400, 5, 0, -917399, 6, 0, -917398, 5, 0, -917397, 6, 0, -917396, 5, 0, -917395, 6, 0, -851874, 6, 0, -851873, 5, 0, -851872, 6, 0, -851871, 5, 0, -851870, 6, 0, -851869, 5, 0, -851868, 6, 0, -851867, 5, 0, -851866, 6, 0, -851865, 5, 0, -851864, 6, 0, -851863, 5, 0, -851862, 6, 0, -851861, 5, 0, -851860, 6, 0, -851859, 5, 0, -786326, 5, 0, -786325, 6, 0, -786324, 5, 0, -786323, 6, 0, -720790, 6, 0, -720789, 5, 0, -720788, 6, 0, -720787, 5, 0, -655264, 5, 0, -655263, 6, 0, -655262, 5, 0, -655261, 6, 0, -655260, 5, 0, -655259, 6, 0, -655258, 5, 0, -655257, 6, 0, -655256, 5, 0, -655255, 6, 0, -655254, 5, 0, -655253, 6, 0, -655252, 5, 0, -655251, 6, 0, -589728, 6, 0, -589727, 5, 0, -589726, 6, 0, -589725, 5, 0, -589724, 6, 0, -589723, 5, 0, -589722, 6, 0, -589721, 5, 0, -589720, 6, 0, -589719, 5, 0, -589718, 6, 0, -589717, 5, 0, -589716, 6, 0, -524192, 5, 0, -524191, 6, 0, -524190, 5, 0, -524189, 6, 0, -524188, 5, 0, -524187, 6, 0, -524186, 5, 0, -524185, 6, 0, -524184, 5, 0, -524183, 6, 0, -524182, 5, 0, -131131, 6, 0, -65595, 5, 0, -59, 6, 0, 65474, 5, 0, 65475, 5, 0, 65477, 5, 0, 65479, 6, 0, 65480, 5, 0, 8, 0, 0, 9, 1, 0, 10, 1, 0, 11, 1, 0, 12, 2, 0, 13, 3, 0, 131010, 5, 0, 131011, 6, 0, 131013, 6, 0, 131015, 5, 0, 131016, 5, 0, 65544, 4, 0, 65545, 5, 0, 65546, 6, 0, 65547, 5, 0, 65548, 6, 0, 65549, 11, 0, 196544, 5, 0, 196549, 5, 0, 196555, 5, 0, 131077, 0, 0, 131078, 1, 0, 131079, 2, 0, 131080, 11, 0, 131082, 10, 0, 131083, 11, 0, 131085, 4, 0, 131086, 1, 0, 131087, 3, 0, 196613, 4, 0, 196614, 5, 0, 196615, 6, 0, 196616, 11, 0, 196617, 1, 0, 196618, 4, 0, 196619, 5, 0, 196620, 1, 0, 196621, 11, 0, 196622, 10, 0, 196623, 11, 0 )

[node name="DarkNoclip" type="TileMap" parent="."]
tile_set = ExtResource( 3 )
cell_size = Vector2( 32, 32 )
format = 1
tile_data = PoolIntArray( -1441695, 8, 0, -1441694, 1, 0, -1441693, 2, 0, -1441692, 1, 0, -1441691, 2, 0, -1441690, 1, 0, -1441689, 2, 0, -1441688, 1, 0, -1441687, 1, 0, -1441686, 2, 0, -1441685, 1, 0, -1441684, 2, 0, -1441683, 1, 0, -1441682, 1, 0, -1441681, 9, 0, -1376160, 0, 0, -1376159, 4, 0, -1376158, 6, 0, -1376157, 5, 0, -1376147, 5, 0, -1376146, 6, 0, -1376145, 7, 0, -1376144, 3, 0, -1310624, 10, 0, -1310623, 5, 0, -1310622, 11, 0, -1310610, 5, 0, -1310609, 6, 0, -1310608, 11, 0, -1245088, 10, 0, -1245087, 5, 0, -1245086, 11, 0, -1245074, 5, 0, -1245073, 6, 0, -1245072, 7, 0, -1179552, 4, 0, -1179551, 6, 0, -1179550, 11, 0, -1179538, 6, 0, -1179537, 5, 0, -1179536, 11, 0, -327644, 0, 0, -327643, 3, 0, -196668, 0, 0, -196667, 1, 0, -196666, 3, 0, -262111, 8, 0, -262110, 9, 0, -262109, 2, 0, -262108, 4, 0, -262107, 5, 0, -262106, 3, 0, -262105, 8, 0, -262104, 9, 0, -262103, 0, 0, -262102, 3, 0, -262100, 0, 0, -262099, 3, 0, -131132, 10, 0, -131130, 7, 0, -196578, 0, 0, -196577, 1, 0, -196576, 3, 0, -196575, 10, 0, -196574, 7, 0, -196573, 6, 0, -196572, 5, 0, -196571, 6, 0, -196570, 5, 0, -196569, 4, 0, -196568, 5, 0, -196567, 6, 0, -196566, 7, 0, -196565, 3, 0, -196564, 4, 0, -196563, 7, 0, -65599, 0, 0, -65598, 1, 0, -65597, 2, 0, -65596, 4, 0, -65594, 11, 0, -65593, 0, 0, -65592, 1, 0, -65591, 3, 0, -131045, 8, 0, -131044, 3, 0, -131043, 9, 0, -131042, 11, 0, -131040, 10, 0, -131039, 5, 0, -131038, 11, 0, -131037, 0, 0, -131036, 2, 0, -131035, 3, 0, -131034, 4, 0, -131033, 11, 0, -131030, 10, 0, -131029, 11, 0, -131028, 10, 0, -131027, 11, 0, -131026, 8, 0, -131025, 3, 0, -63, 4, 0, -62, 6, 0, -61, 5, 0, -60, 6, 0, -59, 6, 0, -58, 6, 0, -57, 6, 0, -56, 6, 0, -55, 11, 0, -65510, 8, 0, -65509, 6, 0, -65508, 5, 0, -65507, 6, 0, -65506, 7, 0, -65505, 3, 0, -65504, 4, 0, -65503, 6, 0, -65502, 7, 0, -65501, 10, 0, -65500, 5, 0, -65499, 7, 0, -65498, 10, 0, -65497, 7, 0, -65496, 0, 0, -65495, 1, 0, -65494, 4, 0, -65493, 7, 0, -65492, 4, 0, -65491, 6, 0, -65490, 10, 0, -65489, 6, 0, -65488, 3, 0, 65473, 10, 0, 65475, 6, 0, 65476, 6, 0, 65478, 6, 0, 65479, 5, 0, 65481, 7, 0, 131006, 8, 0, 131007, 1, 0, 131008, 3, 0, 131009, 4, 0, 131011, 5, 0, 131012, 5, 0, 131014, 6, 0, 131015, 6, 0, 131017, 11, 0, 131018, 1, 0, 131019, 1, 0, 131020, 2, 0, 131021, 9, 0, 196542, 10, 0, 196543, 5, 0, 196545, 6, 0, 196546, 6, 0, 196547, 6, 0, 196548, 6, 0, 196550, 5, 0, 196551, 6, 0, 196552, 6, 0, 196553, 5, 0, 196554, 5, 0, 196556, 6, 0, 196557, 11, 0, 262077, 8, 0, 262078, 4, 0, 262079, 6, 0, 262080, 5, 0, 262081, 6, 0, 262082, 5, 0, 262083, 5, 0, 262084, 5, 0, 262085, 6, 0, 262086, 6, 0, 262087, 5, 0, 262088, 6, 0, 262089, 6, 0, 262090, 5, 0, 262091, 6, 0, 262092, 5, 0, 262093, 7, 0, 262094, 2, 0, 262095, 3, 0, 327620, 6, 0, 327621, 6, 0, 393156, 6, 0, 393157, 6, 0, 458692, 6, 0, 458693, 6, 0, 524229, 4, 0, 589764, 0, 0, 589765, 11, 0, 655300, 5, 0, 655301, 11, 0, 720836, 5, 0, 720837, 7, 0, 720838, 1, 0, 720839, 3, 0, 786372, 6, 0, 786373, 5, 0, 786374, 6, 0, 786375, 7, 0, 786376, 3, 0 )

[node name="HellCastleStairs" type="TileMap" parent="."]
tile_set = ExtResource( 5 )
cell_size = Vector2( 32, 32 )
format = 1
tile_data = PoolIntArray( -1900445, 2, 0, -1900439, 3, 0, -1834911, 2, 0, -1834910, 0, 0, -1834909, 1, 0, -1834903, 4, 0, -1834902, 5, 0, -1834901, 3, 0, -1769377, 2, 0, -1769376, 0, 0, -1769375, 1, 0, -1769374, 1073741828, 0, -1769373, 1073741825, 0, -1769367, 1073741828, 0, -1769366, 1073741825, 0, -1769365, 4, 0, -1769364, 5, 0, -1769363, 3, 0, -1703843, 2, 0, -1703842, 0, 0, -1703841, 1, 0, -1703840, 1073741828, 0, -1703839, 1073741829, 0, -1703838, 1073741827, 0, -1703837, 1073741826, 0, -1703831, 1073741827, 0, -1703830, 1073741826, 0, -1703829, 1073741824, 0, -1703828, 1073741825, 0, -1703827, 4, 0, -1703826, 5, 0, -1703825, 3, 0, -1638308, 0, 0, -1638307, 1, 0, -1638306, 1073741828, 0, -1638305, 1073741829, 0, -1638304, 1073741827, 0, -1638292, 1073741826, 0, -1638291, 1073741824, 0, -1638290, 1073741825, 0, -1638289, 4, 0, -1638288, 5, 0, -1572772, 1073741828, 0, -1572771, 1073741829, 0, -1572770, 1073741827, 0, -1572754, 1073741826, 0, -1572753, 1073741824, 0, -1572752, 1073741825, 0, -1507236, 1073741827, 0, -1507216, 1073741826, 0, -1179535, 3, 0, -1113999, 4, 0, -1113998, 5, 0, -1113997, 3, 0, -1048462, 12, 0, -1048461, 4, 0, -1048460, 5, 0, -1048459, 3, 0, -982948, 3, 0, -982924, 12, 0, -982923, 4, 0, -982922, 5, 0, -982921, 3, 0, -917412, 4, 0, -917411, 5, 0, -917410, 3, 0, -917386, 12, 0, -917385, 4, 0, -917384, 5, 0, -917383, 3, 0, -851885, 3, 0, -851876, 1073741838, 0, -851875, 13, 0, -851874, 4, 0, -851873, 5, 0, -851848, 12, 0, -851847, 4, 0, -851846, 5, 0, -851845, 3, 0, -786349, 4, 0, -786348, 5, 0, -786347, 3, 0, -786340, 1073741824, 0, -786339, 1073741825, 0, -786338, 1073741838, 0, -786337, 13, 0, -786310, 12, 0, -786309, 4, 0, -786308, 5, 0, -720812, 15, 0, -720811, 4, 0, -720810, 5, 0, -720809, 3, 0, -720803, 1073741826, 0, -720802, 1073741824, 0, -720801, 1073741825, 0, -720772, 11, 0, -655274, 15, 0, -655273, 4, 0, -655272, 5, 0, -655271, 3, 0, -655265, 1073741826, 0, -655252, 2, 0, -589736, 15, 0, -589735, 4, 0, -589734, 5, 0, -589718, 2, 0, -589717, 0, 0, -589716, 1, 0, -524194, 8, 0, -524183, 0, 0, -524182, 1, 0, -524181, 14, 0, -458660, 8, 0, -458659, 0, 0, -458658, 1, 0, -458647, 14, 0, -393126, 8, 0, -393125, 0, 0, -393124, 1, 0, -393123, 14, 0, -327598, 8, 0, -327591, 0, 0, -327590, 1, 0, -327589, 14, 0, -262063, 8, 0, -262062, 6, 0, -262055, 14, 0, -131111, 8, 0, -196528, 2, 0, -196527, 6, 0, -65576, 8, 0, -65575, 6, 0, -130994, 2, 0, -130993, 0, 0, -130992, 1, 0, -41, 8, 0, -40, 6, 0, -39, 14, 0, -65459, 0, 0, -65458, 1, 0, -65457, 14, 0, 65494, 8, 0, 65495, 6, 0, 65496, 14, 0, 77, 14, 0, 131029, 8, 0, 131030, 6, 0, 131031, 14, 0, 196564, 8, 0, 196565, 6, 0, 196566, 14, 0, 262100, 6, 0, 262101, 14, 0, 327636, 14, 0, 655319, 2, 0, 720853, 2, 0, 720854, 0, 0, 720855, 1, 0, 786388, 0, 0, 786389, 1, 0, 786390, 14, 0, 851924, 14, 0 )

[node name="WalkwaySet" type="TileMap" parent="."]
tile_set = ExtResource( 6 )
cell_size = Vector2( 32, 32 )
format = 1
tile_data = PoolIntArray( -1179556, 0, 0, -1179555, 1, 0, -1179554, 1, 0, -1179553, 2, 0, -1114020, 4, 0, -1114019, 5, 0, -1114018, 5, 0, -1114017, 6, 0, -851936, 13, 0, -851935, 0, 0, -851934, 1, 0, -851933, 1, 0, -851932, 1, 0, -851931, 2, 0, -851927, 0, 0, -851926, 1, 0, -851925, 1, 0, -851924, 1, 0, -851923, 1, 0, -851922, 2, 0, -851918, 0, 0, -851917, 1, 0, -851916, 1, 0, -851915, 1, 0, -851914, 1, 0, -851913, 1, 0, -851912, 1, 0, -851911, 1, 0, -851910, 2, 0, -851906, 0, 0, -851905, 1, 0, -851904, 1, 0, -851903, 1, 0, -851902, 1, 0, -851901, 1, 0, -851900, 1, 0, -851899, 1, 0, -851898, 1, 0, -851897, 1, 0, -851896, 1, 0, -851895, 1, 0, -851894, 1, 0, -851893, 1, 0, -851892, 1, 0, -851891, 1, 0, -851890, 1, 0, -851889, 1, 0, -851888, 2, 0, -851862, 0, 0, -851861, 1, 0, -851860, 1, 0, -851859, 2, 0, -786402, 13, 0, -786401, 8, 0, -786400, 9, 0, -786399, 5, 0, -786398, 5, 0, -786397, 5, 0, -786396, 5, 0, -786395, 6, 0, -786391, 4, 0, -786390, 5, 0, -786389, 5, 0, -786388, 5, 0, -786387, 5, 0, -786386, 6, 0, -786382, 4, 0, -786381, 5, 0, -786380, 5, 0, -786379, 5, 0, -786378, 5, 0, -786377, 5, 0, -786376, 5, 0, -786375, 5, 0, -786374, 6, 0, -786370, 4, 0, -786369, 5, 0, -786368, 5, 0, -786367, 5, 0, -786366, 5, 0, -786365, 5, 0, -786364, 5, 0, -786363, 5, 0, -786362, 5, 0, -786361, 5, 0, -786360, 5, 0, -786359, 5, 0, -786358, 5, 0, -786357, 5, 0, -786356, 5, 0, -786355, 5, 0, -786354, 5, 0, -786353, 5, 0, -786352, 6, 0, -786326, 4, 0, -786325, 5, 0, -786324, 5, 0, -786323, 6, 0, -720868, 13, 0, -720867, 8, 0, -720866, 9, 0, -720865, 12, 0, -720837, 0, 0, -720836, 1, 0, -720835, 2, 0, -655334, 13, 0, -655333, 8, 0, -655332, 9, 0, -655331, 12, 0, -655301, 4, 0, -655300, 5, 0, -655299, 6, 0, -589800, 13, 0, -589799, 8, 0, -589798, 9, 0, -589797, 12, 0, -589768, 0, 0, -589767, 1, 0, -589766, 2, 0, -589762, 0, 0, -589761, 1, 0, -589760, 2, 0, -524266, 13, 0, -524265, 8, 0, -524264, 9, 0, -524263, 12, 0, -524232, 4, 0, -524231, 5, 0, -524230, 5, 0, -524226, 4, 0, -524225, 5, 0, -524224, 6, 0, -458732, 13, 0, -458731, 8, 0, -458730, 9, 0, -458729, 12, 0, -458700, 13, 0, -458699, 0, 0, -458698, 1, 0, -458697, 3, 0, -458693, 0, 0, -458692, 1, 0, -458691, 2, 0, -458687, 0, 0, -458686, 1, 0, -458685, 2, 0, -458684, 14, 0, -327683, 0, 0, -327682, 1, 0, -327681, 1, 0, -393216, 1, 0, -393215, 1, 0, -393214, 1, 0, -393213, 2, 0, -393209, 0, 0, -393208, 1, 0, -393207, 1, 0, -393206, 1, 0, -393205, 1, 0, -393204, 1, 0, -393203, 1, 0, -393202, 1, 0, -393201, 1, 0, -393200, 1, 0, -393199, 1, 0, -393198, 2, 0, -393197, 8, 0, -393196, 9, 0, -393195, 12, 0, -393166, 13, 0, -393165, 8, 0, -393164, 9, 0, -393163, 4, 0, -393162, 5, 0, -393161, 6, 0, -393157, 4, 0, -393156, 5, 0, -393155, 7, 0, -393151, 4, 0, -393150, 5, 0, -393149, 6, 0, -393148, 10, 0, -393147, 11, 0, -393146, 14, 0, -262168, 13, 0, -262167, 0, 0, -262166, 1, 0, -262165, 1, 0, -262164, 1, 0, -262163, 1, 0, -262162, 1, 0, -262161, 1, 0, -262160, 1, 0, -262159, 1, 0, -262158, 1, 0, -262157, 1, 0, -262156, 1, 0, -262155, 1, 0, -262154, 1, 0, -262153, 1, 0, -262152, 2, 0, -262147, 4, 0, -262146, 5, 0, -262145, 5, 0, -327680, 5, 0, -327679, 5, 0, -327678, 5, 0, -327677, 6, 0, -327673, 4, 0, -327672, 6, 0, -327671, 6, 0, -327670, 6, 0, -327669, 6, 0, -327668, 6, 0, -327667, 6, 0, -327666, 6, 0, -327665, 6, 0, -327664, 6, 0, -327663, 6, 0, -327662, 6, 0, -327661, 12, 0, -327632, 13, 0, -327631, 8, 0, -327630, 9, 0, -327629, 12, 0, -327624, 0, 0, -327623, 1, 0, -327622, 2, 0, -327618, 0, 0, -327617, 1, 0, -327616, 2, 0, -327611, 15, 0, -327610, 10, 0, -327609, 11, 0, -327608, 14, 0, -196634, 13, 0, -196633, 8, 0, -196632, 9, 0, -196631, 4, 0, -196630, 5, 0, -196629, 5, 0, -196628, 5, 0, -196627, 5, 0, -196626, 5, 0, -196625, 5, 0, -196624, 5, 0, -196623, 5, 0, -196622, 5, 0, -196621, 5, 0, -196620, 5, 0, -196619, 5, 0, -196618, 5, 0, -196617, 5, 0, -196616, 6, 0, -262098, 13, 0, -262097, 8, 0, -262096, 9, 0, -262095, 12, 0, -262088, 4, 0, -262087, 5, 0, -262086, 6, 0, -262082, 4, 0, -262081, 5, 0, -262080, 6, 0, -262073, 15, 0, -262072, 10, 0, -262071, 11, 0, -262070, 14, 0, -131104, 0, 0, -131103, 1, 0, -131102, 1, 0, -131101, 1, 0, -131100, 2, 0, -131099, 8, 0, -131098, 9, 0, -131097, 12, 0, -196562, 9, 0, -196561, 12, 0, -196549, 0, 0, -196548, 1, 0, -196547, 2, 0, -196535, 15, 0, -196534, 10, 0, -65568, 4, 0, -65567, 5, 0, -65566, 5, 0, -65565, 5, 0, -65564, 6, 0, -65563, 12, 0, -131013, 4, 0, -131012, 5, 0, -131011, 6, 0, 65504, 0, 0, 65505, 1, 0, 65506, 1, 0, 65507, 1, 0, 65508, 2, 0, 131040, 4, 0, 131041, 5, 0, 131042, 5, 0, 131043, 5, 0, 131044, 6, 0, 262112, 0, 0, 262113, 1, 0, 262114, 1, 0, 262115, 1, 0, 262116, 2, 0, 327648, 4, 0, 327649, 5, 0, 327650, 5, 0, 327651, 5, 0, 327652, 6, 0, 458720, 0, 0, 458721, 1, 0, 458722, 1, 0, 458723, 1, 0, 458724, 2, 0, 524256, 4, 0, 524257, 5, 0, 524258, 5, 0, 524259, 5, 0, 524260, 6, 0 )

[node name="Enemy" parent="." instance=ExtResource( 7 )]
position = Vector2( 3351, -572 )

[node name="NextLevel" parent="." instance=ExtResource( 9 )]
position = Vector2( 4448, -416 )
next_level = "res://Level 2.tscn"

[node name="Lever" parent="." instance=ExtResource( 8 )]
position = Vector2( -1472, 350 )
scale = Vector2( 2, 2 )

[node name="Gate" parent="." instance=ExtResource( 11 )]
position = Vector2( 3088, -240 )
